pert_id	pert_iname	pert_type	cell_id	ss	enrichment	pvalues	prank	median_gutc	newstat
BRD-A82307304:HT29	atorvastatin	trt_cp	HT29	AHR_BRCA_NEG_RSUB3_Z0_12	0.713587045669556	0.0255451492515642	0.952380952380952	86.4543151855469	82.3374430338542
BRD-A10523515:MCF7	GSK-429286A	trt_cp	MCF7	ROCK1_BRCA_NEG_RSUB3_Z0_25	0.79317718744278	0.000363579909788761	0.983606557377049	82.2660980224609	80.9174734647157
BRD-K79404599:MCF7	enzastaurin	trt_cp	MCF7	GSK3B_BRCA_NEG_RSUB3_Z0_14	0.790542244911194	0.00305823339249221	0.92436974789916	86.4393348693848	79.9019061817842
BRD-K33583600:A375	isoliquiritigenin	trt_cp	A375	SIRT1_BRCA_NEG_RSUB3_Z0_25	0.758610129356384	0.000363579909788761	0.945454545454545	75.6513290405273	71.524892911044
ccsbBroad304_04018:MCF7	VKORC1	trt_oe	MCF7	VKORC1_BRCA_POS_RSUB3_Z0_13	-0.790392935276031	0.00922229832633876	-0.96	-72.4537963867188	69.55564453125
BRD-K36862742:HCC515	hydroflumethiazide	trt_cp	HCC515	CA2_BRCA_POS_RSUB3_Z0_22	0.593527436256409	0.0423629970957304	0.888888888888889	76.0836219787598	67.629886203342
BRD-K59184148:A549	SB-216763	trt_cp	A549	GSK3B_BRCA_NEG_RSUB3_Z0_14	0.696849942207336	0.0010936657035353	0.724137931034483	90.1788482666016	65.3019246068494
BRD-K36862742:HCC515	hydroflumethiazide	trt_cp	HCC515	ATP1A1_BRCA_POS_RSUB3_Z0_10	0.598957240581512	0.19992853269427	1	62.7458438873291	62.7458438873291
BRD-K19540840:MCF7	saracatinib	trt_cp	MCF7	SRC_BRCA_NEG_RSUB3_Z0_12	0.71875923871994	0.01063741982367	0.941176470588235	65.7107887268066	61.8454482134651
BRD-K09186807:MCF7	KIN001-244	trt_cp	MCF7	PDPK1_BRCA_NEG_RSUB3_Z0_25	0.714972257614136	0.00067821752582601	0.865079365079365	69.5773773193359	60.1899533952986
BRD-A69951442:A549	dexamethasone	trt_cp	A549	NR3C1_BRCA_NEG_RSUB3_Z0_11	0.678698718547821	0.0136592092644689	0.84375	71.037483215332	59.9378764629364
BRD-A45498368:MCF7	WYE-125132	trt_cp	MCF7	PIK3CA_BRCA_NEG_RSUB3_Z0_27	-0.681417286396027	0.000527780166167598	-0.716312056737589	-83.0328521728516	59.4774331167235
BRD-A75409952:VCAP	wortmannin	trt_cp	VCAP	ATM_BRCA_NEG_RSUB3_Z0_13	-0.773148119449615	0.0061343235376933	-0.771186440677966	-76.3216323852539	58.8582080259162
ccsbBroad304_08183:HA1E	NSDHL	trt_oe	HA1E	NSDHL_BRCA_POS_RSUB3_Z0_12	0.659931540489197	0.709815128129234	0.838709677419355	68.290111541748	57.2755774221113
BRD-K97810537:HT29	beclometasone	trt_cp	HT29	NR3C1_BRCA_NEG_RSUB3_Z0_11	0.731418073177338	0.00834643460668827	0.842105263157895	67.7617797851562	57.0625513980263
BRD-A75409952:VCAP	wortmannin	trt_cp	VCAP	ATR_BRCA_NEG_RSUB3_Z0_12	-0.826086938381195	0.00433001465229313	-0.914529914529915	-62.3254680633545	56.9985049810165
BRD-A45889380:A549	mepacrine	trt_cp	A549	TP53_BRCA_NEG_RSUB3_Z0_20	-0.765913844108582	0.00546234879642328	-1	-54.5487098693848	54.5487098693848
BRD-A82307304:A375	atorvastatin	trt_cp	A375	AHR_BRCA_NEG_RSUB3_Z0_12	0.741905629634857	0.0628416981365406	0.964912280701754	55.4786586761475	53.5320390734756
BRD-K23875128:A549	RHO-kinase-inhibitor-III[rockout]	trt_cp	A549	IMPDH2_BRCA_POS_RSUB3_Z0_11	0.750664293766022	0.00173442932134763	0.941176470588235	56.5702857971191	53.2426219267004
BRD-K91601245:A375	mercaptopurine	trt_cp	A375	IMPDH2_BRCA_POS_RSUB3_Z0_11	0.752310514450073	0.112344275857605	0.870967741935484	53.4301834106445	46.5359661963678
BRD-K49669041:MCF7	BX-912	trt_cp	MCF7	PDPK1_BRCA_NEG_RSUB3_Z0_25	-0.701167345046997	0.000363579909788761	-0.801369863013699	-55.9700241088867	44.852690553012
BRD-K97056771:MCF7	HY-11007	trt_cp	MCF7	ABL1_BRCA_NEG_RSUB3_Z0_13	-0.703409194946289	0.00823664193616222	-0.817073170731707	-54.8284072875977	44.7988205886469
BRD-K91601245:PC3	mercaptopurine	trt_cp	PC3	IMPDH2_BRCA_POS_RSUB3_Z0_11	0.649180829524994	0.0387235016640168	0.72	59.4092445373535	42.7746560668945
BRD-K28360340:A549	TW-37	trt_cp	A549	BCL2L1_BRCA_POS_RSUB3_Z0_11	0.603912889957428	0.0952792956112827	0.88	48.4765510559082	42.6593649291992
BRD-K98763141:MCF7	niflumic-acid	trt_cp	MCF7	KCNQ1_BRCA_POS_RSUB3_Z0_11	0.574165105819702	0.435806204648864	0.842105263157895	49.4547424316406	41.6460988898026
BRD-A93255169:MCF7	thalidomide	trt_cp	MCF7	CRBN_BRCA_NEG_RSUB3_Z0_10	0.696288466453552	0.161502966551617	0.938053097345133	38.7949638366699	36.3917359883806
BRD-K36862742:VCAP	hydroflumethiazide	trt_cp	VCAP	ATP1A1_BRCA_POS_RSUB3_Z0_10	-0.90304708480835	0.000959176161437944	-1	-35.8241062164307	35.8241062164307
BRD-K98763141:A375	niflumic-acid	trt_cp	A375	KCNQ1_BRCA_POS_RSUB3_Z0_11	-0.562857329845428	0.145347297294566	-0.796610169491525	-43.5510101318359	34.693177562649
BRD-K49669041:MCF7	BX-912	trt_cp	MCF7	GSK3B_BRCA_NEG_RSUB3_Z0_14	-0.738346874713898	0.0010936657035353	-0.790849673202614	-42.7816772460938	33.833875469133
BRD-K59369769:MCF7	tozasertib	trt_cp	MCF7	ABL1_BRCA_NEG_RSUB3_Z0_13	-0.680984318256378	0.0627386430581036	-0.75	-44.0824737548828	33.0618553161621
BRD-K97810537:MCF7	beclometasone	trt_cp	MCF7	NR3C1_BRCA_NEG_RSUB3_Z0_11	0.609868407249451	0.0633569264441202	0.65891472868217	49.5545272827148	32.6522078994633
BRD-K97764662:A549	PD-173074	trt_cp	A549	FGFR1_BRCA_POS_RSUB3_Z0_31	-0.417195469141006	0.239166527982386	-0.8	-40.7680320739746	32.6144256591797
BRD-K62810658:A549	PD-98059	trt_cp	A549	MAPK1_BRCA_NEG_RSUB3_Z0_10	0.685792624950409	0.0618110043966138	0.607142857142857	52.2206058502197	31.7053678376334
BRD-K73978287:MCF7	hydrocortisone	trt_cp	MCF7	NR3C1_BRCA_NEG_RSUB3_Z0_11	0.658768475055695	0.0296395193988197	0.767441860465116	41.1248893737793	31.5609616124353
BRD-K68407802:MCF7	KIN001-055	trt_cp	MCF7	EGFR_BRCA_NEG_RSUB3_Z0_17	-0.650305509567261	0.00421572744694577	-0.763513513513513	-41.0483207702637	31.3409476151338
ccsbBroad304_07923:HEPG2	LSM5	trt_oe	HEPG2	LSM5_BRCA_POS_RSUB3_Z0_10	-0.756743311882019	0.074776463597476	-0.818181818181818	-38.2573280334473	31.3014502091841
BRD-A25234499:MCF7	aminoglutethimide	trt_cp	MCF7	NR3C1_BRCA_NEG_RSUB3_Z0_11	0.65618908405304	0.242499759483455	0.75968992248062	40.3191299438477	30.6300367015277
BRD-K15592317:MCF7	CP466722	trt_cp	MCF7	ATM_BRCA_NEG_RSUB3_Z0_13	-0.690751969814301	0.0052372391802704	-0.644295302013423	-45.5285263061523	29.3338156066485
BRD-K93568044:PC3	hydrocortisone	trt_cp	PC3	NR3C1_BRCA_NEG_RSUB3_Z0_11	0.632636785507202	0.0094406253299758	0.730769230769231	39.817008972168	29.0970450181227
ccsbBroad304_02249:HT29	KIAA0494	trt_oe	HT29	KIAA0494_BRCA_NEG_RSUB3_Z0_13	-0.711419284343719	0.0446470794339027	-0.434782608695652	-66.7277908325195	29.0120829706607
BRD-K22096725:MCF7	ALW-II-49-7	trt_cp	MCF7	EPHB4_BRCA_NEG_RSUB3_Z0_12	-0.555886805057526	0.111833954497855	-0.73394495412844	-39.4200496673584	28.9321465448502
BRD-K47869605:PC3	podophyllotoxin	trt_cp	PC3	IGF1R_BRCA_NEG_RSUB3_Z0_15	-0.499339580535889	0.132934339863841	-0.761904761904762	-37.6684875488281	28.6998000372024
ccsbBroad304_01320:HA1E	PSMD4	trt_oe	HA1E	PSMD4_BRCA_POS_RSUB3_Z0_14	0.873957395553589	0.00455794960697931	1	28.5714740753174	28.5714740753174
BRD-A75409952:VCAP	wortmannin	trt_cp	VCAP	PIK3CA_BRCA_NEG_RSUB3_Z0_27	-0.69243311882019	0.000527780166167598	-0.736842105263158	-38.2021179199219	28.1489289936266
BRD-A75409952:A375	wortmannin	trt_cp	A375	ATM_BRCA_NEG_RSUB3_Z0_13	-0.675000011920929	0.0204796759869532	-0.548780487804878	-50.7853736877441	27.8700221457132
BRD-K09186807:A549	KIN001-244	trt_cp	A549	PDPK1_BRCA_NEG_RSUB3_Z0_25	0.578238785266876	0.0197379658879224	0.666666666666667	41.0715103149414	27.3810068766276
BRD-K52911425:MCF7	GDC-0941	trt_cp	MCF7	PIK3CB_BRCA_NEG_RSUB3_Z0_10	-0.573388755321503	0.147177431932137	-0.531468531468531	-51.4055995941162	27.3204585255443
BRD-A67373739:A549	AICA-ribonucleotide	trt_cp	A549	PRKAA1_BRCA_NEG_RSUB3_Z0_10	0.519952714443207	0.26985121486032	0.464285714285714	58.5574569702148	27.1873907361712
BRD-K90027355:VCAP	spironolactone	trt_cp	VCAP	NR3C1_BRCA_NEG_RSUB3_Z0_11	-0.633880257606506	0.0241764405718204	-0.592920353982301	-44.4213485717773	26.3383217195494
BRD-K22096725:VCAP	ALW-II-49-7	trt_cp	VCAP	DDR1_BRCA_NEG_RSUB3_Z0_14	-0.680679857730865	0.0269117955731576	-0.947368421052632	-26.7299914360046	25.3231497814781
BRD-K93433262:VCAP	alfacalcidol	trt_cp	VCAP	CYP3A5_BRCA_POS_RSUB2_Z0_104	0.291732281446457	0.242802751342169	0.673076923076923	36.4385089874268	24.525919510768
BRD-A16478930:PC3	amcinonide	trt_cp	PC3	NR3C1_BRCA_NEG_RSUB3_Z0_11	0.51066792011261	0.21561442620212	0.525641025641026	46.2685623168945	24.3206545511882
BRD-K73978287:HT29	hydrocortisone	trt_cp	HT29	NR3C1_BRCA_NEG_RSUB3_Z0_11	-0.756007373332977	0.0544833059576808	-0.75	-31.2657165527344	23.4492874145508
BRD-A58048407:MCF7	nimodipine	trt_cp	MCF7	AHR_BRCA_NEG_RSUB3_Z0_12	-0.631351828575134	0.429592320502702	-0.813432835820896	-27.7849445343018	22.6011862256634
BRD-K56343971:MCF7	vemurafenib	trt_cp	MCF7	CYP3A5_BRCA_POS_RSUB3_Z0_62	-0.483333051204681	0.058097777283863	-0.94578313253012	-23.6531858444214	22.370784202254
BRD-K51313569:MCF7	palbociclib	trt_cp	MCF7	CDK4_BRCA_POS_RSUB3_Z0_22	-0.4689100086689	0.128657303065773	-0.550724637681159	-40.5184726715088	22.3145211814106
BRD-A76019558:PC3	ketoconazole	trt_cp	PC3	CYP3A5_BRCA_POS_RSUB3_Z0_62	0.374241709709167	0.0812438931207006	0.777777777777778	28.6452026367188	22.2796020507812
BRD-K93433262:VCAP	alfacalcidol	trt_cp	VCAP	CYP3A5_BRCA_POS_RSUB3_Z0_62	0.310268312692642	0.979860639791304	0.607843137254902	36.5859184265137	22.238499435724
ccsbBroad304_01375:MCF7	RARA	trt_oe	MCF7	RARA_BRCA_POS_RSUB3_Z0_24	-0.771749317646027	0.00387146263243245	-0.988304093567251	-22.3446769714355	22.0833357203076
BRD-K94830329:PC3	ataluren	trt_cp	PC3	CFTR_BRCA_POS_RSUB3_Z0_33	0.480071216821671	0.274086918967235	0.89873417721519	23.6846408843994	21.286196237878
BRD-K64052750:MCF7	gefitinib	trt_cp	MCF7	EGFR_BRCA_NEG_RSUB3_Z0_17	-0.743055701255798	0.00282265446974817	-0.932432432432432	-22.7685279846191	21.2301139316043
BRD-A75409952:A375	wortmannin	trt_cp	A375	ATR_BRCA_NEG_RSUB3_Z0_12	-0.660425543785095	0.0328832852708758	-0.48780487804878	-43.3306484222412	21.136901669386
BRD-K38775274:PC3	dexamethasone	trt_cp	PC3	NR3C1_BRCA_NEG_RSUB3_Z0_11	0.562834024429321	0.0587169551773427	0.628205128205128	33.3226318359375	20.9334482046274
BRD-K61033289:A549	15-delta-prostaglandin-j2	trt_cp	A549	PPARG_BRCA_POS_RSUB3_Z0_18	-0.634728670120239	0.00135508443750431	-0.966666666666667	-21.3620758056641	20.6500066121419
BRD-K56343971:MCF7	vemurafenib	trt_cp	MCF7	CYP3A5_BRCA_POS_RSUB2_Z0_104	-0.452834516763687	0.0500361011769915	-0.975155279503106	-21.0115642547607	20.4895378136487
BRD-A36217750:HT29	sulfinpyrazone	trt_cp	HT29	ABCC2_BRCA_POS_RSUB3_Z0_36	-0.410894960165024	0.27126321014148	-0.615384615384615	-33.238242149353	20.4543028611403
BRD-K76723084:PC3	isotretinoin	trt_cp	PC3	RARA_BRCA_POS_RSUB3_Z0_24	0.558545410633087	0.0107459099257803	0.8	25.3373794555664	20.2699035644531
BRD-K90027355:VCAP	spironolactone	trt_cp	VCAP	SCNN1A_BRCA_NEG_RSUB3_Z0_34	-0.455065429210663	0.00856580484760807	-0.764150943396226	-26.299825668335	20.0970365956145
BRD-A19195498:MCF7	trimipramine	trt_cp	MCF7	SLC6A2_BRCA_POS_RSUB3_Z0_41	0.547217965126038	0.0584073819987198	0.957446808510638	20.8306999206543	19.9442871580733
BRD-K07881437:VCAP	danusertib	trt_cp	VCAP	FGFR1_BRCA_POS_RSUB3_Z0_31	-0.41949126124382	0.105298678985932	-0.717391304347826	-27.700569152832	19.8721474357273
BRD-A30717181:VCAP	triamcinolone	trt_cp	VCAP	CYP3A5_BRCA_POS_RSUB2_Z0_104	0.335333049297333	0.33803080059007	0.798076923076923	24.8320064544678	19.8178513050079
BRD-K53737926:MCF7	amitriptyline	trt_cp	MCF7	SLC6A2_BRCA_POS_RSUB2_Z0_103	0.454803287982941	0.0196319356625485	0.886666666666667	21.9886684417725	19.4966193517049
BRD-K10799896:PC3	clobetasol	trt_cp	PC3	NR3C1_BRCA_NEG_RSUB3_Z0_11	-0.53955739736557	0.425682915026263	-0.540540540540541	-35.4179725646973	19.1448500349715
BRD-K83153774:MCF7	mirtazapine	trt_cp	MCF7	SLC6A2_BRCA_POS_RSUB3_Z0_41	-0.416775822639465	0.205091399095996	-0.847328244274809	-22.0769195556641	18.706397486097
BRD-A59303141:VCAP	quinethazone	trt_cp	VCAP	CA2_BRCA_POS_RSUB3_Z0_22	0.477065205574036	0.102028743396959	0.873684210526316	20.814398765564	18.1852115530717
BRD-K92778217:MCF7	mefenamic-acid	trt_cp	MCF7	KCNQ1_BRCA_POS_RSUB3_Z0_11	-0.48887038230896	0.38816590918019	-0.766666666666667	-23.5820903778076	18.0796026229858
BRD-K41410256:VCAP	balsalazide	trt_cp	VCAP	PPARG_BRCA_POS_RSUB3_Z0_18	0.372770011425018	0.52306551255893	0.547169811320755	32.8859901428223	17.9942210215443
BRD-A19195498:MCF7	trimipramine	trt_cp	MCF7	SLC6A2_BRCA_POS_RSUB2_Z0_103	0.478733360767365	0.0358062496780472	0.926666666666667	19.2919788360596	17.8772337214152
BRD-K73109821:MCF7	diazoxide	trt_cp	MCF7	CA2_BRCA_POS_RSUB3_Z0_22	-0.461055010557175	0.123562921287423	-0.743055555555556	-24.0190553665161	17.8474925292863
BRD-A82307304:PC3	atorvastatin	trt_cp	PC3	CYP3A5_BRCA_POS_RSUB2_Z0_104	0.39331242442131	0.00067821752582601	0.885714285714286	19.2949542999268	17.0898166656494
BRD-K47983010:A375	BX-795	trt_cp	A375	PDPK1_BRCA_NEG_RSUB3_Z0_25	0.53871476650238	0.00998542785073623	0.5	34.0706901550293	17.0353450775146
BRD-K38436528:HCC515	imipramine	trt_cp	HCC515	SLC6A2_BRCA_POS_RSUB2_Z0_103	-0.294339507818222	0.0334056950831261	-0.857142857142857	-19.7293529510498	16.9108739580427
BRD-K11433652:MCF7	aspirin	trt_cp	MCF7	PRKAA1_BRCA_NEG_RSUB3_Z0_10	0.523857057094574	0.10693306029223	0.459677419354839	36.4934272766113	16.7752044739262
BRD-K62810658:A549	PD-98059	trt_cp	A549	MAP2K2_BRCA_POS_RSUB3_Z0_13	0.527112066745758	0.233306674441131	0.333333333333333	50.0866203308105	16.6955401102702
BRD-A76019558:PC3	ketoconazole	trt_cp	PC3	CYP3A5_BRCA_POS_RSUB2_Z0_104	0.346121549606323	0.108362831871025	0.714285714285714	23.3302297592163	16.6644498280116
BRD-K62810658:A549	PD-98059	trt_cp	A549	MAP2K1_BRCA_NEG_RSUB3_Z0_11	0.586317777633667	0.0827824451905438	0.703703703703704	23.5037841796875	16.5396999782986
BRD-K63630713:VCAP	etacrynic-acid	trt_cp	VCAP	SLC12A2_BRCA_POS_RSUB3_Z0_11	0.522165894508362	0.261074533837701	0.757575757575758	20.7913608551025	15.7510309508353
BRD-K52911425:MCF7	GDC-0941	trt_cp	MCF7	PIK3CA_BRCA_NEG_RSUB3_Z0_27	-0.519253492355347	0.0109627472652252	-0.340425531914894	-46.0206642150879	15.666609094498
BRD-K00317371:A549	RITA	trt_cp	A549	TXNRD1_BRCA_POS_RSUB3_Z0_10	0.517120957374573	0.217030473855692	0.75	20.7686386108398	15.5764789581299
BRD-K36927236:A375	glibenclamide	trt_cp	A375	ABCA1_BRCA_NEG_RSUB3_Z0_12	0.627847194671631	0.0468249806120008	0.785714285714286	19.7829875946045	15.5437759671892
BRD-A30717181:VCAP	triamcinolone	trt_cp	VCAP	CYP3A5_BRCA_POS_RSUB3_Z0_62	0.322779476642609	0.688268971840782	0.666666666666667	23.1341743469238	15.4227828979492
BRD-K24023109:A549	diltiazem	trt_cp	A549	CYP3A5_BRCA_POS_RSUB3_Z0_62	0.361845284700394	0.559116581969913	0.818181818181818	18.516622543335	15.1499638990922
BRD-K21450440:MCF7	benzthiazide	trt_cp	MCF7	CA2_BRCA_POS_RSUB3_Z0_22	0.488414645195007	0.278725062215068	0.875	17.2460932731628	15.0903316140175
BRD-A36217750:VCAP	sulfinpyrazone	trt_cp	VCAP	ABCC1_BRCA_NEG_RSUB3_Z0_13	-0.585287153720856	0.111527744934275	-0.855769230769231	-17.2349987030029	14.7491815823775
BRD-K85606544:A375	neratinib	trt_cp	A375	EGFR_BRCA_NEG_RSUB3_Z0_17	-0.501240730285645	0.136395266029026	-0.430379746835443	-33.5494918823242	14.4390218227724
BRD-K68756823:A375	FR-180204	trt_cp	A375	MAPK1_BRCA_NEG_RSUB3_Z0_10	-0.667590022087097	0.43410252785182	-0.474358974358974	-29.8727798461914	14.1704212090908
BRD-K53737926:MCF7	amitriptyline	trt_cp	MCF7	SLC6A2_BRCA_POS_RSUB3_Z0_41	0.383975684642792	0.675351915458364	0.702127659574468	20.1005039215088	14.1131197746764
BRD-K62810658:A549	PD-98059	trt_cp	A549	RAF1_BRCA_NEG_RSUB3_Z0_15	0.484162926673889	0.279934849293738	0.607142857142857	23.0993843078613	14.0246261869158
BRD-A75409952:A375	wortmannin	trt_cp	A375	PIK3CA_BRCA_NEG_RSUB3_Z0_27	-0.546034336090088	0.00790681453562358	-0.384615384615385	-35.8759231567383	13.7984319833609
BRD-K83153774:PC3	mirtazapine	trt_cp	PC3	SLC6A2_BRCA_POS_RSUB2_Z0_103	0.405381619930267	0.00185842896880967	0.833333333333333	16.5120964050293	13.7600803375244
BRD-A35108200:A375	dexamethasone	trt_cp	A375	NR3C1_BRCA_NEG_RSUB3_Z0_11	0.57334840297699	0.0864730471301688	0.56140350877193	24.1767616271973	13.5729188082511
BRD-A17655518:A375	ibuprofen	trt_cp	A375	CFTR_BRCA_POS_RSUB3_Z0_33	0.413288116455078	0.228253564022721	0.776315789473684	17.4167938232422	13.5209320469906
BRD-A82307304:PC3	atorvastatin	trt_cp	PC3	CYP3A5_BRCA_POS_RSUB3_Z0_62	0.415343761444092	0.00421572744694577	0.888888888888889	15.1296682357788	13.4485939873589
BRD-A36217750:HT29	sulfinpyrazone	trt_cp	HT29	ABCC1_BRCA_NEG_RSUB3_Z0_13	0.417790442705154	0.130286886471701	0.482758620689655	27.5594444274902	13.3045593787884
BRD-K93918653:MCF7	quizartinib	trt_cp	MCF7	RET_BRCA_NEG_RSUB3_Z0_17	-0.520816504955292	0.411444248972435	-0.872611464968153	-15.1951675415039	13.2594774088282
BRD-K67102207:VCAP	phenylbutyrate	trt_cp	VCAP	CYP3A5_BRCA_POS_RSUB3_Z0_62	-0.278974950313568	0.779766341583938	-0.56043956043956	-23.6388339996338	13.2481377360585
BRD-K83153774:MCF7	mirtazapine	trt_cp	MCF7	SLC6A2_BRCA_POS_RSUB2_Z0_103	-0.437468349933624	0.00534986952795448	-0.918032786885246	-13.9569883346558	12.8129728973889
BRD-K24023109:A549	diltiazem	trt_cp	A549	CYP3A5_BRCA_POS_RSUB2_Z0_104	0.352166622877121	0.429391850819076	0.896551724137931	14.2424783706665	12.7691185392182
BRD-K28912512:MCF7	nicotinamide	trt_cp	MCF7	SIRT5_BRCA_POS_RSUB3_Z0_14	-0.426890760660172	0.526362828466938	-0.486666666666667	-25.5991916656494	12.4582732772827
BRD-K50398167:PC3	meclofenamic-acid	trt_cp	PC3	CNR1_BRCA_POS_RSUB3_Z0_24	-0.471973031759262	0.296965686451677	-0.725806451612903	-16.986777305603	12.3291125605183
BRD-K19540840:MCF7	saracatinib	trt_cp	MCF7	ABL1_BRCA_NEG_RSUB3_Z0_13	-0.49063777923584	0.145957377468362	-0.329268292682927	-37.4083938598633	12.3173979782477
BRD-K41895714:MCF7	AS-605240	trt_cp	MCF7	PIK3CB_BRCA_NEG_RSUB3_Z0_10	-0.568762540817261	0.291626041469728	-0.517482517482518	-23.5988569259644	12.2119958917578
BRD-K36927236:A375	glibenclamide	trt_cp	A375	CPT1A_BRCA_POS_RSUB3_Z0_11	0.569140911102295	0.315393178740292	0.739130434782609	16.5077514648438	12.2013815174932
BRD-K36927236:MCF7	glibenclamide	trt_cp	MCF7	CPT1A_BRCA_POS_RSUB3_Z0_11	0.663019239902496	0.224007842943083	0.873417721518987	13.342339515686	11.6534357795232
BRD-A19037878:PC3	trichostatin-a	trt_cp	PC3	HDAC3_BRCA_NEG_RSUB3_Z0_10	0.367480367422104	0.966317490894395	0.346153846153846	33.4079141616821	11.5642779790438
BRD-K47983010:A375	BX-795	trt_cp	A375	GSK3B_BRCA_NEG_RSUB3_Z0_14	0.485678553581238	0.0538632173028808	0.39622641509434	28.6745672225952	11.3616209749906
BRD-K93034159:VCAP	cladribine	trt_cp	VCAP	POLE2_BRCA_NEG_RSUB3_Z0_11	0.527027308940887	0.119077343687144	0.8	13.8262958526611	11.0610366821289
BRD-A64092382:VCAP	mexiletine	trt_cp	VCAP	AHR_BRCA_NEG_RSUB3_Z0_12	-0.531754851341248	0.201042237135081	-0.446601941747573	-24.7155094146729	11.0379944958733
BRD-A38030642:A375	cyclosporin-a	trt_cp	A375	CYP3A5_BRCA_POS_RSUB2_Z0_104	0.428321272134781	0.0314194206652022	0.940298507462687	11.3818893432617	10.7023735615745
BRD-K11129031:HCC515	gemfibrozil	trt_cp	HCC515	SLCO1B3_BRCA_POS_RSUB3_Z0_159	-0.352742463350296	0.39790097950832	-0.9	-11.6851148605347	10.5166033744812
BRD-A38030642:A375	cyclosporin-a	trt_cp	A375	CYP3A5_BRCA_POS_RSUB3_Z0_62	0.422428399324417	0.205091399095996	0.924242424242424	11.1866672039032	10.3391924157287
BRD-K38775274:PC3	dexamethasone	trt_cp	PC3	CYP3A5_BRCA_POS_RSUB2_Z0_104	-0.363681197166443	0.645617757511899	-0.878048780487805	-11.6759238243103	10.2520306750042
BRD-K96354014:A375	nifedipine	trt_cp	A375	CYP3A5_BRCA_POS_RSUB2_Z0_104	-0.291185975074768	0.15327563431367	-0.47887323943662	-21.4043130874634	10.2499527461092
BRD-K88172511:VCAP	naltrexone	trt_cp	VCAP	SIGMAR1_BRCA_NEG_RSUB3_Z0_10	-0.408607333898544	0.90956744782088	-0.522935779816514	-19.3446419239044	10.1160054097482
BRD-K49865102:VCAP	PD-0325901	trt_cp	VCAP	MAP2K1_BRCA_POS_RSUB3_Z0_10	0.391725540161133	0.908688037573689	0.447916666666667	22.5750389099121	10.1117361783981
BRD-K35573744:PC3	erbstatin-analog	trt_cp	PC3	EGFR_BRCA_NEG_RSUB3_Z0_17	0.387180835008621	0.403118404519213	0.402439024390244	24.9633159637451	10.046212521995
BRD-K02265150:HCC515	amoxapine	trt_cp	HCC515	GABRE_BRCA_POS_RSUB3_Z0_18	0.463103324174881	0.40050981134482	0.714285714285714	13.9946823120117	9.99620165143694
BRD-K38775274:PC3	dexamethasone	trt_cp	PC3	CYP3A5_BRCA_POS_RSUB3_Z0_62	-0.39087837934494	0.636760643481674	-0.875	-11.407742023468	9.98177427053452
BRD-K81128206:MCF7	edrophonium	trt_cp	MCF7	BCHE_BRCA_POS_RSUB3_Z0_33	-0.419738680124283	0.257542627679887	-0.847328244274809	-11.199010848999	9.48923820029688
BRD-A16311756:MCF7	profenamine	trt_cp	MCF7	BCHE_BRCA_POS_RSUB3_Z0_33	-0.322583228349686	0.0717961920711745	-0.534351145038168	-17.6827640533447	9.44880521934451
BRD-K12184916:A375	NVP-BEZ235	trt_cp	A375	ATR_BRCA_NEG_RSUB3_Z0_12	-0.44591611623764	0.385957486439723	-0.195121951219512	-47.0270214080811	9.17600417718655
BRD-K62810658:A549	PD-98059	trt_cp	A549	ROCK1_BRCA_NEG_RSUB3_Z0_25	0.425734013319016	0.0825773327499726	0.393939393939394	23.0993843078613	9.09975745461204
BRD-K93754473:A549	tamoxifen	trt_cp	A549	CYP3A5_BRCA_POS_RSUB2_Z0_104	0.340125888586044	0.742046371916614	0.862068965517241	10.4967050552368	9.0488836683076
BRD-K32247306:HT29	primidone	trt_cp	HT29	GABRE_BRCA_POS_RSUB3_Z0_18	-0.531762897968292	0.258249058176662	-0.882352941176471	-10.0781803131104	8.89251204097972
BRD-A35108200:A375	dexamethasone	trt_cp	A375	CYP3A5_BRCA_POS_RSUB2_Z0_104	-0.336933434009552	0.825788781919691	-0.71830985915493	-12.3364372253418	8.8613844858089
BRD-K09499853:A549	KU-0060648	trt_cp	A549	PIK3CA_BRCA_NEG_RSUB3_Z0_27	0.43956732749939	0.0879075747163971	0.4375	19.8122272491455	8.66784942150116
BRD-K83153774:PC3	mirtazapine	trt_cp	PC3	SLC6A2_BRCA_POS_RSUB3_Z0_41	0.372228145599365	0.142398071815623	0.626865671641791	13.5347194671631	8.48445100926641
BRD-K89732114:MCF7	trifluoperazine	trt_cp	MCF7	TNNC1_BRCA_POS_RSUB3_Z0_21	-0.645880401134491	0.0260710173202189	-0.971223021582734	-8.60932350158691	8.36157318499448
BRD-K25311561:MCF7	KU-55933	trt_cp	MCF7	ATM_BRCA_NEG_RSUB3_Z0_13	0.655257701873779	0.0292203209488416	0.67479674796748	12.2630109786987	8.2750399287154
BRD-K10852020:VCAP	tolcapone	trt_cp	VCAP	TTR_BRCA_POS_RSUB3_Z0_288	-0.22492328286171	0.844510467903504	-0.505376344086022	-15.7509093284607	7.96013697244788
BRD-K81473089:MCF7	tacrine	trt_cp	MCF7	BCHE_BRCA_POS_RSUB3_Z0_33	0.383780539035797	0.859171533195056	0.709219858156028	11.1946668624878	7.93948004431758
BRD-K67102207:VCAP	phenylbutyrate	trt_cp	VCAP	CYP3A5_BRCA_POS_RSUB2_Z0_104	-0.262110084295273	0.902235156534568	-0.584269662921348	-13.546745300293	7.91495231028353
BRD-A48631911:PC3	mibefradil	trt_cp	PC3	CYP3A5_BRCA_POS_RSUB3_Z0_62	-0.252574980258942	0.289913059586389	-0.3375	-23.4024057388306	7.89831193685532
BRD-K11129031:HCC515	gemfibrozil	trt_cp	HCC515	SLCO1B3_BRCA_POS_RSUB2_Z0_202	-0.340021520853043	0.362858861078487	-0.909090909090909	-8.63654661178589	7.85140601071444
BRD-K43887077:VCAP	dopamine	trt_cp	VCAP	SLC6A2_BRCA_POS_RSUB2_Z0_103	-0.304285913705826	0.0645931587068488	-0.569620253164557	-13.6924619674683	7.79950365235534
BRD-K96354014:A375	nifedipine	trt_cp	A375	CYP3A5_BRCA_POS_RSUB3_Z0_62	-0.312887072563171	0.0322561199532344	-0.388888888888889	-19.8078050613403	7.70303530163235
BRD-A48631911:PC3	mibefradil	trt_cp	PC3	CYP3A5_BRCA_POS_RSUB2_Z0_104	-0.244150176644325	0.0742627740414123	-0.378048780487805	-19.9464044570923	7.54071388012025
BRD-K06080977:A549	eicosatetraynoic-acid	trt_cp	A549	PPARG_BRCA_POS_RSUB3_Z0_18	-0.308761805295944	0.366174212022569	-0.466666666666667	-15.9363508224487	7.43696371714274
BRD-A62326914:PC3	paroxetine	trt_cp	PC3	SLC6A2_BRCA_POS_RSUB3_Z0_41	-0.339579731225967	0.318211432921526	-0.635294117647059	-11.3128023147583	7.18695676466998
BRD-A91008255:MCF7	bepridil	trt_cp	MCF7	ATP1A1_BRCA_POS_RSUB3_Z0_10	-0.616340935230255	0.213793617158787	-0.839160839160839	-8.53179931640625	7.15955187390734
BRD-A34299591:PC3	budesonide	trt_cp	PC3	CYP3A5_BRCA_POS_RSUB2_Z0_104	-0.359879463911057	0.0327787786421027	-0.841463414634146	-8.44335746765137	7.10477640570664
BRD-K82746043:A375	navitoclax	trt_cp	A375	BCL2L1_BRCA_POS_RSUB3_Z0_11	-0.569857001304626	0.23209405706629	-0.711864406779661	-9.94878959655762	7.08218920432915
BRD-K22096725:VCAP	ALW-II-49-7	trt_cp	VCAP	EPHB4_BRCA_NEG_RSUB3_Z0_12	-0.548806130886078	0.211264383241839	-0.691358024691358	-10.1697902679443	7.03096611117139
BRD-K38197229:A549	bumetanide	trt_cp	A549	SLC12A2_BRCA_POS_RSUB3_Z0_11	0.429455488920212	0.695817320272691	0.478260869565217	14.5054397583008	6.93738423223081
BRD-K62810658:A549	PD-98059	trt_cp	A549	GSK3B_BRCA_NEG_RSUB3_Z0_14	0.456301629543304	0.331593738381987	0.241379310344828	28.2278461456299	6.81361803515204
BRD-K12219985:VCAP	glipizide	trt_cp	VCAP	PPARG_BRCA_POS_RSUB3_Z0_18	0.459164559841156	0.331996102646467	0.811320754716981	8.30605936050415	6.73887834908827
BRD-K68191783:MCF7	ALW-II-38-3	trt_cp	MCF7	EPHB4_BRCA_NEG_RSUB3_Z0_12	-0.596390426158905	0.0447508398764872	-0.770642201834862	-8.70748066902161	6.71035207520931
BRD-K60762818:MCF7	desipramine	trt_cp	MCF7	SLC6A2_BRCA_POS_RSUB2_Z0_103	0.515128076076508	0.0169747679794764	0.973333333333333	6.8705997467041	6.68738375345866
BRD-A26384407:MCF7	chlortalidone	trt_cp	MCF7	CA12_BRCA_NEG_RSUB3_Z0_21	-0.410369455814362	0.62013335392495	-0.630769230769231	-10.5951652526855	6.68310423630934
BRD-K92723993:VCAP	imatinib	trt_cp	VCAP	ABL1_BRCA_NEG_RSUB3_Z0_13	0.559611022472382	0.0464103121237196	0.645569620253165	10.3412351608276	6.67598725572417
BRD-A64479082:VCAP	quinidine	trt_cp	VCAP	KCNK1_BRCA_NEG_RSUB3_Z0_28	0.258504539728165	0.710906800582985	0.363636363636364	18.0537939071655	6.56501596624201
BRD-K32247306:HT29	primidone	trt_cp	HT29	GRIA2_BRCA_POS_RSUB3_Z0_26	0.444106578826904	0.193548472194764	0.5	12.8703927993774	6.43519639968872
BRD-K05977355:VCAP	fluconazole	trt_cp	VCAP	CYP3A5_BRCA_POS_RSUB3_Z0_62	-0.517691552639008	0.00067821752582601	-0.978021978021978	-6.56142020225525	6.41721316484305
BRD-K29313308:MCF7	HDAC3-selective	trt_cp	MCF7	HDAC3_BRCA_NEG_RSUB3_Z0_10	-0.714917957782745	0.149108899246136	-0.889705882352941	-7.15575504302979	6.36651735446032
BRD-K80738081:A549	resveratrol	trt_cp	A549	TXNRD1_BRCA_POS_RSUB3_Z0_10	-0.426883846521378	0.79489160329379	-0.393939393939394	-15.5913105010986	6.1420314095237
BRD-K24023109:HCC515	diltiazem	trt_cp	HCC515	CYP3A5_BRCA_POS_RSUB2_Z0_104	-0.312988489866257	0.639447940246153	-0.666666666666667	-9.03833484649658	6.02555656433105
BRD-A36217750:VCAP	sulfinpyrazone	trt_cp	VCAP	ABCC2_BRCA_POS_RSUB3_Z0_36	-0.271406680345535	0.875186364216634	-0.30952380952381	-19.3919868469238	6.00228164309547
BRD-A59303141:MCF7	quinethazone	trt_cp	MCF7	SLC12A2_BRCA_POS_RSUB3_Z0_11	0.442656248807907	0.640940767622659	0.431506849315068	13.8556594848633	5.9788119694958
BRD-K98763141:PC3	niflumic-acid	trt_cp	PC3	KCNQ1_BRCA_POS_RSUB3_Z0_11	0.53281033039093	0.355824942714212	0.740740740740741	7.93995189666748	5.88144584938332
BRD-A09722536:A375	cyclophosphamide	trt_cp	A375	CYP3A5_BRCA_POS_RSUB3_Z0_62	-0.284681588411331	0.591934051967984	-0.291666666666667	-20.1595649719238	5.87987311681112
BRD-K38436528:VCAP	imipramine	trt_cp	VCAP	SLC6A2_BRCA_POS_RSUB3_Z0_41	0.270330131053925	0.584156936226774	0.398373983739837	14.2830152511597	5.68998168542133
BRD-K77908580:PC3	entinostat	trt_cp	PC3	HDAC3_BRCA_NEG_RSUB3_Z0_10	-0.435862898826599	0.36074887973045	-0.513513513513513	-11.0732927322388	5.68628545709558
BRD-K53855319:A375	SRT-1720	trt_cp	A375	SIRT1_BRCA_NEG_RSUB3_Z0_25	-0.617461979389191	0.0243871524209572	-0.457831325301205	-12.4043588638306	5.67910405813929
BRD-K24023109:HCC515	diltiazem	trt_cp	HCC515	CYP3A5_BRCA_POS_RSUB3_Z0_62	-0.345721065998077	0.435505562934792	-0.833333333333333	-6.73438453674316	5.61198711395264
BRD-A48631911:PC3	mibefradil	trt_cp	PC3	ANO1_BRCA_NEG_RSUB3_Z0_15	-0.337577253580093	0.672668302042889	-0.208955223880597	-25.7619171142578	5.38308715820312
BRD-K93176058:A375	AC-55649	trt_cp	A375	RARA_BRCA_POS_RSUB3_Z0_24	-0.511526226997375	0.176825460793913	-0.852941176470588	-5.95586657524109	5.08000384358799
BRD-K93034159:A375	cladribine	trt_cp	A375	POLE2_BRCA_NEG_RSUB3_Z0_11	-0.393587499856949	0.720233491420212	-0.236842105263158	-21.0022315979004	4.97421274687115
BRD-K73978287:VCAP	hydrocortisone	trt_cp	VCAP	NR3C1_BRCA_NEG_RSUB3_Z0_11	0.568977355957031	0.126314256357008	0.4375	11.3538866043091	4.96732538938522
BRD-A67373739:A375	AICA-ribonucleotide	trt_cp	A375	PRKAA1_BRCA_NEG_RSUB3_Z0_10	-0.609424293041229	0.337628531868372	-0.531645569620253	-9.33001184463501	4.96025946170469
BRD-K97056771:VCAP	HY-11007	trt_cp	VCAP	ABL1_BRCA_NEG_RSUB3_Z0_13	-0.423547118902206	0.143415141300105	-0.307017543859649	-16.140344619751	4.95536896220425
BRD-K38436528:VCAP	imipramine	trt_cp	VCAP	SLC6A2_BRCA_POS_RSUB2_Z0_103	0.267813444137573	0.450233428453583	0.307017543859649	15.7055387496948	4.82187593192385
BRD-K56515112:MCF7	medrysone	trt_cp	MCF7	NR3C1_BRCA_NEG_RSUB3_Z0_11	0.479949802160263	0.208633564740526	0.465116279069767	10.0942058563232	4.69497946805732
BRD-K85606544:MCF7	neratinib	trt_cp	MCF7	EGFR_BRCA_NEG_RSUB3_Z0_17	-0.485983461141586	0.364868213291671	-0.398648648648649	-11.5938339233398	4.62186622619629
BRD-A93255169:PC3	thalidomide	trt_cp	PC3	CRBN_BRCA_NEG_RSUB3_Z0_10	-0.370175361633301	0.805658568362039	-0.325581395348837	-13.7621936798096	4.48071422133335
BRD-K41895714:MCF7	AS-605240	trt_cp	MCF7	PIK3CA_BRCA_NEG_RSUB3_Z0_27	-0.419024676084518	0.193042001749903	-0.212765957446809	-21.0474243164062	4.47817538646941
BRD-K52522949:PC3	NCH-51	trt_cp	PC3	HDAC3_BRCA_NEG_RSUB3_Z0_10	-0.385801553726196	0.24573142423551	-0.351351351351351	-12.2578039169312	4.30679597081365
BRD-K47869605:PC3	podophyllotoxin	trt_cp	PC3	IGF1R_BRCA_POS_RSUB3_Z0_13	0.411409467458725	0.540447314403877	0.488636363636364	8.69566822052002	4.24901969866319
BRD-A34299591:PC3	budesonide	trt_cp	PC3	CYP3A5_BRCA_POS_RSUB3_Z0_62	-0.336138814687729	0.076419861498606	-0.625	-6.77775287628174	4.23609554767609
BRD-K43887077:VCAP	dopamine	trt_cp	VCAP	SLC6A2_BRCA_POS_RSUB3_Z0_41	-0.270549654960632	0.654471939158448	-0.385714285714286	-10.8773441314697	4.19554702213832
BRD-K78126613:A549	menadione	trt_cp	A549	VKORC1_BRCA_POS_RSUB3_Z0_13	0.455783665180206	0.459347039168843	0.464285714285714	8.76934432983398	4.07148129599435
BRD-K01507359:A375	rifampicin	trt_cp	A375	CYP3A5_BRCA_POS_RSUB3_Z0_62	0.338774293661118	0.279329964151754	0.666666666666667	6.09717559814453	4.06478373209635
BRD-K66043364:VCAP	noscapine	trt_cp	VCAP	SIGMAR1_BRCA_NEG_RSUB3_Z0_10	0.36723393201828	0.694824251994242	0.357142857142857	11.3723907470703	4.06156812395368
BRD-A64092382:PC3	mexiletine	trt_cp	PC3	AHR_BRCA_NEG_RSUB3_Z0_12	-0.451526284217834	0.151040021565642	-0.391891891891892	-10.3091735839844	4.04008153966955
BRD-K60762818:MCF7	desipramine	trt_cp	MCF7	SLC6A2_BRCA_POS_RSUB3_Z0_41	0.423365771770477	0.441517817681247	0.815602836879433	4.94205141067505	4.03075115055057
BRD-K54462405:PC3	doxepin	trt_cp	PC3	SLC6A2_BRCA_POS_RSUB2_Z0_103	-0.244302481412888	0.721820625808938	-0.27027027027027	-14.881275177002	4.02196626405458
BRD-A09094913:PC3	strychnine	trt_cp	PC3	GLRB_BRCA_NEG_RSUB3_Z0_16	0.530616462230682	0.0118282982299571	0.764705882352941	5.07942581176758	3.88426679723403
BRD-K09991945:MCF7	GSK-3-inhibitor-II	trt_cp	MCF7	GSK3B_BRCA_NEG_RSUB3_Z0_14	0.543055593967438	0.0125834875326012	0.436974789915966	8.50855350494385	3.7180233803116
BRD-K36616567:PC3	doxepin	trt_cp	PC3	SLC6A2_BRCA_POS_RSUB2_Z0_103	0.285825669765472	0.861531182608332	0.487179487179487	7.599365234375	3.70225485777244
BRD-K62810658:A549	PD-98059	trt_cp	A549	MAP2K1_BRCA_POS_RSUB3_Z0_10	-0.376065313816071	0.898419044413253	-0.428571428571429	-8.61230659484863	3.69098854064941
BRD-K86161929:MCF7	cortisone	trt_cp	MCF7	NR3C1_BRCA_NEG_RSUB3_Z0_11	-0.403761625289917	0.604492666220987	-0.167832167832168	-21.948055267334	3.68358969521689
BRD-K22096725:MCF7	ALW-II-49-7	trt_cp	MCF7	DDR1_BRCA_NEG_RSUB3_Z0_14	-0.574879348278046	0.076111771276148	-0.785123966942149	-4.57682847976685	3.59337773204835
BRD-K85606544:A375	neratinib	trt_cp	A375	ERBB2_BRCA_NEG_RSUB3_Z0_12	-0.283142775297165	0.542045138930061	-0.164383561643836	-21.6121044158936	3.55267469850305
BRD-K49865102:VCAP	PD-0325901	trt_cp	VCAP	MAP2K2_BRCA_POS_RSUB3_Z0_13	0.317853927612305	0.599509746022031	0.120481927710843	29.4844760894775	3.55234651680452
BRD-K56343971:MCF7	vemurafenib	trt_cp	MCF7	RAF1_BRCA_POS_RSUB3_Z0_19	-0.318692177534103	0.807139676529459	-0.2578125	-12.9392709732056	3.33590579777956
BRD-K05977355:VCAP	fluconazole	trt_cp	VCAP	CYP3A5_BRCA_POS_RSUB2_Z0_104	-0.365244448184967	0.0188892009964597	-0.932584269662921	-3.50119352340698	3.26515800497505
BRD-A09722536:PC3	cyclophosphamide	trt_cp	PC3	CYP3A5_BRCA_POS_RSUB3_Z0_62	-0.269421458244324	0.513471282587259	-0.3875	-8.38663291931152	3.24982025623322
BRD-A17655518:A375	ibuprofen	trt_cp	A375	PPARG_BRCA_POS_RSUB3_Z0_18	0.376835852861404	0.873026430953454	0.545454545454545	5.88180017471313	3.20825464075262
BRD-K92723993:VCAP	imatinib	trt_cp	VCAP	DDR1_BRCA_NEG_RSUB3_Z0_14	-0.374468177556992	0.628199340006332	-0.4	-8.01422309875488	3.20568923950195
BRD-K05396879:VCAP	15-delta-prostaglandin-j2	trt_cp	VCAP	PPARG_BRCA_POS_RSUB3_Z0_18	0.248174861073494	0.767300368135567	0.141509433962264	22.0979118347168	3.12706299547879
BRD-A51714012:PC3	venlafaxine	trt_cp	PC3	SLC6A2_BRCA_POS_RSUB3_Z0_41	-0.318929404020309	0.0800126993978324	-0.552941176470588	-5.65325260162354	3.12591614442713
BRD-K63068307:VCAP	ZSTK-474	trt_cp	VCAP	PIK3CB_BRCA_NEG_RSUB3_Z0_10	0.306197106838226	0.862022707865367	0.153846153846154	19.8200492858887	3.04923835167518
BRD-A38030642:A375	cyclosporin-a	trt_cp	A375	SLCO1B3_BRCA_POS_RSUB3_Z0_159	0.275852710008621	0.823520634198703	0.514705882352941	5.77646923065186	2.97318269224728
BRD-K95237249:HCC515	probenecid	trt_cp	HCC515	ABCC1_BRCA_NEG_RSUB3_Z0_13	0.437695294618607	0.638353147793866	0.444444444444444	6.64117813110352	2.9516347249349
BRD-A51714012:MCF7	venlafaxine	trt_cp	MCF7	SLC6A2_BRCA_POS_RSUB2_Z0_103	0.321708023548126	0.496074014603617	0.526666666666667	5.52432298660278	2.90947677294413
BRD-K97810537:MCF7	beclometasone	trt_cp	MCF7	CYP3A5_BRCA_POS_RSUB3_Z0_62	-0.292743325233459	0.685884794016478	-0.379518072289157	-7.57161688804626	2.87356544546334
BRD-U88459701:A549	atorvastatin	trt_cp	A549	AHR_BRCA_NEG_RSUB3_Z0_12	-0.348607510328293	0.462350919961944	-0.260869565217391	-10.6849699020386	2.78738345270571
BRD-K68191783:MCF7	ALW-II-38-3	trt_cp	MCF7	DDR1_BRCA_NEG_RSUB3_Z0_14	-0.407686203718185	0.103868277193576	-0.338842975206612	-7.41344976425171	2.5119953746638
BRD-A97437073:A375	rosiglitazone	trt_cp	A375	PPARG_BRCA_POS_RSUB3_Z0_18	-0.384387761354446	0.726978020952498	-0.540983606557377	-4.55679416656494	2.46515094256792
BRD-A51714012:MCF7	venlafaxine	trt_cp	MCF7	SLC6A2_BRCA_POS_RSUB3_Z0_41	0.329862415790558	0.573185690380857	0.539007092198582	4.52287817001343	2.43786341078738
BRD-K56343971:MCF7	vemurafenib	trt_cp	MCF7	RAF1_BRCA_NEG_RSUB3_Z0_15	-0.325364768505096	0.688169635752661	-0.161490683229814	-14.0948543548584	2.2761876597908
BRD-A13133631:VCAP	fluorometholone	trt_cp	VCAP	NR3C1_BRCA_NEG_RSUB3_Z0_11	-0.296297132968903	0.373707594253122	-0.0884955752212389	-25.0362033843994	2.21559321985836
BRD-K36927236:MCF7	glibenclamide	trt_cp	MCF7	ABCA1_BRCA_NEG_RSUB3_Z0_12	-0.455888658761978	0.497374154720274	-0.361111111111111	-6.0373797416687	2.1801649067137
BRD-K53857191:MCF7	risperidone	trt_cp	MCF7	CYP3A5_BRCA_POS_RSUB3_Z0_62	0.294685482978821	0.714181504084725	0.415094339622642	5.22264242172241	2.16788930713006
BRD-K27316855:A549	calcitriol	trt_cp	A549	VDR_BRCA_NEG_RSUB3_Z0_23	0.422841370105743	0.319620437888331	0.484848484848485	4.46455049514771	2.16463054310192
BRD-K32247306:HT29	primidone	trt_cp	HT29	GRIA2_BRCA_POS_RSUB2_Z0_101	0.321041196584702	0.12896287238239	0.307692307692308	7.03048515319824	2.16322620098407
BRD-K05977355:PC3	fluconazole	trt_cp	PC3	CYP3A5_BRCA_POS_RSUB2_Z0_104	-0.211650669574738	0.528361027130857	-0.170731707317073	-12.5496830940247	2.14262882093104
BRD-A48430263:MCF7	pioglitazone	trt_cp	MCF7	PPARG_BRCA_POS_RSUB3_Z0_18	-0.319479256868362	0.699888466654625	-0.348214285714286	-6.07992267608643	2.11711593185152
BRD-A09722536:A375	cyclophosphamide	trt_cp	A375	CYP3A5_BRCA_POS_RSUB2_Z0_104	-0.236739471554756	0.569394673060345	-0.183098591549296	-11.4876933097839	2.10338046517171
BRD-K98763141:MCF7	niflumic-acid	trt_cp	MCF7	ANO1_BRCA_NEG_RSUB3_Z0_15	-0.445850998163223	0.0237548568336971	-0.540540540540541	-3.71849966049194	2.00999981648213
BRD-A19736161:VCAP	ondansetron	trt_cp	VCAP	CYP3A5_BRCA_POS_RSUB3_Z0_62	0.383820116519928	0.972347166474695	0.892156862745098	2.15439701080322	1.92206007826562
BRD-K44276885:MCF7	acarbose	trt_cp	MCF7	MGAM_BRCA_POS_RSUB3_Z0_13	-0.343835324048996	0.349894907944578	-0.368421052631579	-5.21298503875732	1.92057343533165
BRD-K85606544:MCF7	neratinib	trt_cp	MCF7	ERBB2_BRCA_NEG_RSUB3_Z0_12	-0.435035824775696	0.866543609649352	-0.623076923076923	-2.93215036392212	1.82695522675147
BRD-K11129031:VCAP	gemfibrozil	trt_cp	VCAP	SLCO1B3_BRCA_POS_RSUB3_Z0_159	0.195344731211662	0.369991386022107	0.25	7.13427829742432	1.78356957435608
BRD-K27316855:A549	calcitriol	trt_cp	A549	CYP3A5_BRCA_POS_RSUB2_Z0_104	-0.328463613986969	0.0416356811152531	-0.75	-2.34312963485718	1.75734722614288
BRD-K10852020:VCAP	tolcapone	trt_cp	VCAP	TTR_BRCA_POS_RSUB2_Z0_370	-0.1945431381464	0.9767297884837	-0.223684210526316	-7.71006155014038	1.72461903095245
BRD-K32247306:MCF7	primidone	trt_cp	MCF7	GRIA2_BRCA_POS_RSUB2_Z0_101	0.280206769704819	0.675351915458364	0.428571428571429	3.9721508026123	1.7023503439767
BRD-K91263825:PC3	nortriptyline	trt_cp	PC3	SLC6A2_BRCA_POS_RSUB3_Z0_41	-0.256518810987473	0.536951777994934	-0.282352941176471	-5.80227184295654	1.6382885203642
BRD-K72903603:PC3	zidovudine	trt_cp	PC3	TERT_BRCA_POS_RSUB3_Z0_13	-0.311526268720627	0.433902088831184	-0.226190476190476	-7.0289044380188	1.58987124193282
BRD-K76723084:PC3	isotretinoin	trt_cp	PC3	CYP3A5_BRCA_POS_RSUB3_Z0_62	-0.251775830984116	0.81000274004828	-0.3125	-4.9797682762146	1.55617758631706
BRD-K11129031:VCAP	gemfibrozil	trt_cp	VCAP	SLCO1B3_BRCA_POS_RSUB2_Z0_202	0.188050448894501	0.353915415798287	0.213592233009709	7.0985701084137	1.51619944063205
BRD-A35108200:A375	dexamethasone	trt_cp	A375	CYP3A5_BRCA_POS_RSUB3_Z0_62	-0.246347784996033	0.347381778055462	-0.180555555555556	-7.93487691879272	1.43268611033758
BRD-A38030642:A375	cyclosporin-a	trt_cp	A375	SLCO1B3_BRCA_POS_RSUB2_Z0_202	0.247270941734314	0.992654545052237	0.432835820895522	3.18484306335449	1.37851416175045
BRD-K97810537:MCF7	beclometasone	trt_cp	MCF7	CYP3A5_BRCA_POS_RSUB2_Z0_104	-0.215997621417046	0.419466888810397	-0.118012422360248	-10.5564460754395	1.24579177287795
BRD-K92000912:VCAP	AM-251	trt_cp	VCAP	CNR1_BRCA_POS_RSUB3_Z0_24	0.391391485929489	0.890486586497489	0.48	2.38196206092834	1.14334178924561
BRD-A34299591:A375	budesonide	trt_cp	A375	NR3C1_BRCA_NEG_RSUB3_Z0_11	-0.373713552951813	0.622523519989019	-0.185185185185185	-6.16902923583984	1.14241282145182
BRD-K36927236:A375	glibenclamide	trt_cp	A375	CFTR_BRCA_POS_RSUB3_Z0_33	-0.270067811012268	0.0600580803988935	-0.370967741935484	-3.05332469940186	1.13268496913295
BRD-A17655518:VCAP	ibuprofen	trt_cp	VCAP	PPARG_BRCA_POS_RSUB3_Z0_18	0.29807522892952	0.0859606216332255	0.283018867924528	3.88482367992401	1.09947839997849
BRD-A19195498:PC3	trimipramine	trt_cp	PC3	SLC6A2_BRCA_POS_RSUB3_Z0_41	0.224929764866829	0.57029258953321	0.0895522388059701	11.4493522644043	1.02531512815561
BRD-A34299591:A375	budesonide	trt_cp	A375	CYP3A5_BRCA_POS_RSUB3_Z0_62	-0.323353856801987	0.195574181250156	-0.458333333333333	-2.21173226833344	1.01371062298616
BRD-K01507359:PC3	rifampicin	trt_cp	PC3	CYP3A5_BRCA_POS_RSUB3_Z0_62	0.256962090730667	0.823126135123426	0.333333333333333	2.88558101654053	0.961860338846842
BRD-K01507359:PC3	rifampicin	trt_cp	PC3	CYP3A5_BRCA_POS_RSUB2_Z0_104	0.242526203393936	0.781942044265058	0.3	2.88558101654053	0.865674304962158
BRD-A45889380:A375	mepacrine	trt_cp	A375	TP53_BRCA_NEG_RSUB3_Z0_20	-0.237548276782036	0.884311089120154	-0.0793650793650794	-10.7162127494812	0.850493075355651
BRD-K53737926:MCF7	amitriptyline	trt_cp	MCF7	SIGMAR1_BRCA_NEG_RSUB3_Z0_10	-0.380192041397095	0.588245166644414	-0.342281879194631	-2.41920685768127	0.828050669407685
BRD-K90027355:HT29	spironolactone	trt_cp	HT29	SCNN1A_BRCA_NEG_RSUB3_Z0_34	-0.201213374733925	0.512771584720699	-0.0689655172413793	-11.5341606140137	0.795459352690598
BRD-K13571841:PC3	pepstatin	trt_cp	PC3	CTSD_BRCA_POS_RSUB3_Z0_10	0.316990822553635	0.773831239832443	0.173913043478261	4.39181041717529	0.763793116030486
BRD-K50398167:VCAP	meclofenamic-acid	trt_cp	VCAP	CNR1_BRCA_POS_RSUB3_Z0_24	0.221316054463387	0.270456367244844	0.08	9.08501672744751	0.726801338195801
BRD-K60762818:VCAP	desipramine	trt_cp	VCAP	SLC6A2_BRCA_POS_RSUB2_Z0_103	-0.173671886324883	0.303915447859373	-0.0759493670886076	-9.23750782012939	0.701582872414891
BRD-K72903603:VCAP	zidovudine	trt_cp	VCAP	TERT_BRCA_POS_RSUB3_Z0_13	-0.290650248527527	0.945581221829738	-0.0707070707070707	-9.7016134262085	0.685972666499591
BRD-K32247306:MCF7	primidone	trt_cp	MCF7	GABRE_BRCA_POS_RSUB3_Z0_18	-0.33171159029007	0.87783647740097	-0.386363636363636	-1.77465069293976	0.685660494999452
BRD-A93255169:PC3	thalidomide	trt_cp	PC3	CYP3A5_BRCA_POS_RSUB2_Z0_104	-0.25483301281929	0.650293929692416	-0.439024390243902	-1.51768219470978	0.666299500116488
BRD-K57080016:MCF7	selumetinib	trt_cp	MCF7	MAP2K1_BRCA_NEG_RSUB3_Z0_11	0.235780477523804	0.157136100012387	0.0387596899224806	15.9395627975464	0.617812511532806
BRD-A47598013:A375	citalopram	trt_cp	A375	SLC6A2_BRCA_POS_RSUB2_Z0_103	0.247690171003342	0.558417942057494	0.166666666666667	3.61505460739136	0.602509101231893
BRD-K73109821:MCF7	diazoxide	trt_cp	MCF7	ATP1A1_BRCA_POS_RSUB3_Z0_10	0.26268669962883	0.755618265464318	0.062015503875969	8.07255554199219	0.500623599503391
BRD-K85606544:MCF7	neratinib	trt_cp	MCF7	ERBB2_BRCA_POS_RSUB2_Z0_115	-0.207237184047699	0.00135508443750431	-0.0773809523809524	-6.21321105957031	0.480784189133417
BRD-K05977355:PC3	fluconazole	trt_cp	PC3	CYP3A5_BRCA_POS_RSUB3_Z0_62	-0.173115566372871	0.26632081190732	-0.0375	-12.5496830940247	0.470613116025925
BRD-K02637541:A375	celecoxib	trt_cp	A375	PDPK1_BRCA_NEG_RSUB3_Z0_25	0.207178980112076	0.189192254498247	0.0344827586206897	13.3423757553101	0.460081922596899
BRD-K54462405:PC3	doxepin	trt_cp	PC3	SLC6A2_BRCA_POS_RSUB3_Z0_41	-0.17657159268856	0.945290596936373	-0.0470588235294118	-9.32640552520752	0.438889671774472
BRD-K76723084:A375	isotretinoin	trt_cp	A375	RARA_BRCA_POS_RSUB3_Z0_24	-0.267658084630966	0.920987137999163	-0.102941176470588	-3.9605712890625	0.407705867991728
BRD-A59303141:MCF7	quinethazone	trt_cp	MCF7	CA2_BRCA_POS_RSUB3_Z0_22	-0.319692760705948	0.24270175459364	-0.305555555555556	-1.06791615486145	0.326307713985443
BRD-K13571841:MCF7	pepstatin	trt_cp	MCF7	CTSD_BRCA_POS_RSUB3_Z0_10	0.298557192087173	0.715669849134799	0.108527131782946	2.62231945991516	0.284592809603196
BRD-K01507359:PC3	rifampicin	trt_cp	PC3	SLCO1B3_BRCA_POS_RSUB2_Z0_202	-0.183620125055313	0.682705529228299	-0.0595238095238095	-0.717301249504089	0.042696502946672
BRD-K12184916:A375	NVP-BEZ235	trt_cp	A375	PIK3CA_BRCA_NEG_RSUB3_Z0_27	0.310506552457809	0.00067821752582601	0.233333333333333	0	0
BRD-A62326914:A375	paroxetine	trt_cp	A375	SLC6A2_BRCA_POS_RSUB2_Z0_103	0.399831056594849	0.0010936657035353	0.763888888888889	0	0
BRD-K92723993:MCF7	imatinib	trt_cp	MCF7	CYP3A5_BRCA_POS_RSUB3_Z0_62	-0.489762544631958	0.00387146263243245	-0.951807228915663	0	0
BRD-K10852020:A375	tolcapone	trt_cp	A375	TTR_BRCA_POS_RSUB3_Z0_288	-0.439985364675522	0.00591085477405134	-0.986301369863014	0	0
BRD-K06926592:MCF7	tretinoin	trt_cp	MCF7	RARA_BRCA_POS_RSUB3_Z0_24	-0.485252678394318	0.00646863422995169	-0.760233918128655	0	0
ccsbBroad304_01320:HEPG2	PSMD4	trt_oe	HEPG2	PSMD4_BRCA_POS_RSUB3_Z0_14	0.649367392063141	0.00768653788696771	0.714285714285714	0	0
ccsbBroad304_02249:HEPG2	KIAA0494	trt_oe	HEPG2	KIAA0494_BRCA_NEG_RSUB3_Z0_13	-0.828703701496124	0.00823664193616222	-0.9	0	0
BRD-A09722536:HT29	cyclophosphamide	trt_cp	HT29	CYP3A5_BRCA_POS_RSUB3_Z0_62	-0.418401628732681	0.0178264772532371	-0.681818181818182	0	0
BRD-A62326914:A375	paroxetine	trt_cp	A375	SLC6A2_BRCA_POS_RSUB3_Z0_41	0.504128932952881	0.0178264772532371	0.918918918918919	0	0
BRD-K53790871:HA1E	triamcinolone	trt_cp	HA1E	CYP3A5_BRCA_POS_RSUB2_Z0_104	-0.351322203874588	0.0186768180336767	-0.684210526315789	0	0
BRD-K57080016:MCF7	selumetinib	trt_cp	MCF7	MAP2K2_BRCA_POS_RSUB3_Z0_13	-0.31851851940155	0.0199499718642958	-0.114093959731544	0	0
BRD-A66395008:VCAP	parthenolide	trt_cp	VCAP	ADIPOR2_BRCA_POS_RSUB3_Z0_29	0.456858366727829	0.0200559479172776	0.939393939393939	0	0
BRD-K92723993:MCF7	imatinib	trt_cp	MCF7	CYP3A5_BRCA_POS_RSUB2_Z0_104	-0.390868365764618	0.0202678468920202	-0.881987577639752	0	0
BRD-K91263825:PC3	nortriptyline	trt_cp	PC3	SLC6A2_BRCA_POS_RSUB2_Z0_103	-0.218533709645271	0.0203737701033215	-0.148648648648649	0	0
BRD-K81418486:VCAP	vorinostat	trt_cp	VCAP	HDAC3_BRCA_NEG_RSUB3_Z0_10	-0.37950137257576	0.0235439834764657	-0.3125	0	0
BRD-K67102207:MCF7	phenylbutyrate	trt_cp	MCF7	CYP3A5_BRCA_POS_RSUB2_Z0_104	0.31821396946907	0.0261761551942275	0.657657657657658	0	0
BRD-K27316855:A549	calcitriol	trt_cp	A549	CYP3A5_BRCA_POS_RSUB3_Z0_62	-0.377930372953415	0.0446470794339027	-0.785714285714286	0	0
BRD-K92723993:VCAP	imatinib	trt_cp	VCAP	RET_BRCA_NEG_RSUB3_Z0_17	0.229553908109665	0.0452695644916739	0.111111111111111	0	0
BRD-K30649484:A375	mafenide	trt_cp	A375	CA12_BRCA_NEG_RSUB3_Z0_21	-0.615894675254822	0.0502431205093017	-0.975308641975309	0	0
BRD-K10852020:A375	tolcapone	trt_cp	A375	TTR_BRCA_POS_RSUB2_Z0_370	-0.416384696960449	0.0514848727307465	-0.984848484848485	0	0
BRD-A09533288:A549	verapamil	trt_cp	A549	CYP3A5_BRCA_POS_RSUB3_Z0_62	0.311329931020737	0.0517952149952182	0.636363636363636	0	0
BRD-K94830329:VCAP	ataluren	trt_cp	VCAP	CFTR_BRCA_POS_RSUB3_Z0_33	-0.383376121520996	0.0557230664252667	-0.793478260869565	0	0
BRD-K08589866:A375	linsitinib	trt_cp	A375	IGF1R_BRCA_POS_RSUB3_Z0_13	-0.521942257881165	0.0578913564989055	-0.766666666666667	0	0
BRD-A79479878:MCF7	testosterone	trt_cp	MCF7	CYP3A5_BRCA_POS_RSUB3_Z0_62	-0.38824200630188	0.0609862175136754	-0.728915662650602	0	0
BRD-K35573744:A375	erbstatin-analog	trt_cp	A375	EGFR_BRCA_NEG_RSUB3_Z0_17	-0.65314108133316	0.0635629959330134	-0.822784810126582	0	0
BRD-K10016611:HT29	pyridine-2-aldoxime	trt_cp	HT29	BCHE_BRCA_POS_RSUB3_Z0_33	0.454575777053833	0.0636660260281546	0.787878787878788	0	0
BRD-A09722536:HT29	cyclophosphamide	trt_cp	HT29	CYP3A5_BRCA_POS_RSUB2_Z0_104	-0.309901922941208	0.0727213317415527	-0.428571428571429	0	0
BRD-K62810658:A549	PD-98059	trt_cp	A549	RAF1_BRCA_POS_RSUB3_Z0_19	-0.428754419088364	0.0776520098515095	-0.416666666666667	0	0
BRD-K10852020:MCF7	tolcapone	trt_cp	MCF7	TTR_BRCA_POS_RSUB3_Z0_288	-0.307317733764648	0.0804231325575675	-0.783582089552239	0	0
BRD-K89732114:VCAP	trifluoperazine	trt_cp	VCAP	TNNC1_BRCA_POS_RSUB3_Z0_21	-0.289457648992538	0.0818593719995833	-0.26271186440678	0	0
BRD-K32247306:MCF7	primidone	trt_cp	MCF7	GRIA2_BRCA_POS_RSUB3_Z0_26	-0.305484861135483	0.0860631107393554	-0.381818181818182	0	0
BRD-K10016611:HA1E	pyridine-2-aldoxime	trt_cp	HA1E	BCHE_BRCA_POS_RSUB3_Z0_33	0.454658210277557	0.0863705660308221	0.766666666666667	0	0
BRD-K27721098:A375	clopidogrel	trt_cp	A375	CYP3A5_BRCA_POS_RSUB2_Z0_104	0.253533214330673	0.0866780033521406	0.343283582089552	0	0
BRD-A51714012:PC3	venlafaxine	trt_cp	PC3	SLC6A2_BRCA_POS_RSUB2_Z0_103	-0.217240676283836	0.0933348985749487	-0.121621621621622	0	0
BRD-A62326914:HA1E	paroxetine	trt_cp	HA1E	SLC6A2_BRCA_POS_RSUB2_Z0_103	-0.413722723722458	0.103152963097196	-0.696969696969697	0	0
BRD-A79479878:PC3	testosterone	trt_cp	PC3	CYP3A5_BRCA_POS_RSUB3_Z0_62	-0.226204514503479	0.103561723320985	-0.15	0	0
BRD-A82307304:A375	atorvastatin	trt_cp	A375	CYP3A5_BRCA_POS_RSUB3_Z0_62	0.395466387271881	0.105809464457195	0.863636363636364	0	0
ccsbBroad304_09358:HEPG2	MAPK1IP1L	trt_oe	HEPG2	MAPK1IP1L_BRCA_POS_RSUB3_Z0_15	0.712430417537689	0.109077610174168	1	0	0
BRD-K67102207:MCF7	phenylbutyrate	trt_cp	MCF7	CYP3A5_BRCA_POS_RSUB3_Z0_62	0.3693528175354	0.116527620823782	0.745283018867924	0	0
BRD-K10852020:MCF7	tolcapone	trt_cp	MCF7	TTR_BRCA_POS_RSUB2_Z0_370	-0.291294127702713	0.121524322601493	-0.776923076923077	0	0
BRD-K12184916:A375	NVP-BEZ235	trt_cp	A375	PIK3CB_BRCA_NEG_RSUB3_Z0_10	0.479547262191772	0.122441753170791	0.293103448275862	0	0
BRD-A09533288:A549	verapamil	trt_cp	A549	CYP3A5_BRCA_POS_RSUB2_Z0_104	0.253438651561737	0.123766754103436	0.379310344827586	0	0
BRD-A09722536:MCF7	cyclophosphamide	trt_cp	MCF7	CYP3A5_BRCA_POS_RSUB3_Z0_62	0.306763350963593	0.125091549044664	0.490566037735849	0	0
BRD-K77908580:MCF7	entinostat	trt_cp	MCF7	HDAC3_BRCA_NEG_RSUB3_Z0_10	-0.6910440325737	0.127231174615203	-0.860294117647059	0	0
BRD-K53790871:HA1E	triamcinolone	trt_cp	HA1E	CYP3A5_BRCA_POS_RSUB3_Z0_62	-0.3410664498806	0.135275692280498	-0.441176470588235	0	0
BRD-K98763141:PC3	niflumic-acid	trt_cp	PC3	ANO1_BRCA_NEG_RSUB3_Z0_15	-0.568596363067627	0.135886385038562	-0.73134328358209	0	0
BRD-K77908580:HA1E	entinostat	trt_cp	HA1E	HDAC3_BRCA_NEG_RSUB3_Z0_10	0.720683038234711	0.141584343270657	0.902439024390244	0	0
BRD-K30649484:A375	mafenide	trt_cp	A375	CA2_BRCA_POS_RSUB3_Z0_22	0.337601751089096	0.144432110320125	0.445945945945946	0	0
BRD-K81418486:HA1E	vorinostat	trt_cp	HA1E	HDAC3_BRCA_NEG_RSUB3_Z0_10	0.61548912525177	0.145855699899916	0.731707317073171	0	0
BRD-A79479878:A375	testosterone	trt_cp	A375	CYP3A5_BRCA_POS_RSUB3_Z0_62	0.299268454313278	0.146974099278996	0.545454545454545	0	0
BRD-A93255169:MCF7	thalidomide	trt_cp	MCF7	CYP3A5_BRCA_POS_RSUB3_Z0_62	0.308958113193512	0.147787406598004	0.5	0	0
BRD-K29313308:HA1E	HDAC3-selective	trt_cp	HA1E	HDAC3_BRCA_NEG_RSUB3_Z0_10	-0.597097396850586	0.147787406598004	-0.592592592592593	0	0
BRD-A93255169:PC3	thalidomide	trt_cp	PC3	FGFR2_BRCA_NEG_RSUB3_Z0_13	0.459903091192245	0.147990723744946	0.578313253012048	0	0
BRD-K27721098:A375	clopidogrel	trt_cp	A375	CYP3A5_BRCA_POS_RSUB3_Z0_62	-0.247722208499908	0.149413836086099	-0.194444444444444	0	0
BRD-K81128206:A375	edrophonium	trt_cp	A375	BCHE_BRCA_POS_RSUB3_Z0_33	-0.463658094406128	0.153783665541432	-0.869565217391304	0	0
BRD-A30717181:VCAP	triamcinolone	trt_cp	VCAP	NR3C1_BRCA_NEG_RSUB3_Z0_11	-0.449049532413483	0.155409211585921	-0.309734513274336	0	0
BRD-K98548675:A375	parthenolide	trt_cp	A375	IKBKB_BRCA_POS_RSUB3_Z0_15	-0.484502494335175	0.158964288549875	-0.723684210526316	0	0
BRD-A66395008:VCAP	parthenolide	trt_cp	VCAP	IKBKB_BRCA_POS_RSUB3_Z0_15	-0.431168705224991	0.171145106152606	-0.738636363636364	0	0
BRD-K87909389:MCF7	alvocidib	trt_cp	MCF7	CDK4_BRCA_POS_RSUB3_Z0_22	-0.311077445745468	0.174289893235057	-0.195652173913043	0	0
BRD-A17655518:VCAP	ibuprofen	trt_cp	VCAP	CFTR_BRCA_POS_RSUB3_Z0_33	-0.340281635522842	0.174797045772032	-0.652173913043478	0	0
BRD-K87909389:MCF7	alvocidib	trt_cp	MCF7	EGFR_BRCA_NEG_RSUB3_Z0_17	-0.403130024671555	0.175811292170582	-0.297297297297297	0	0
ccsbBroad304_07923:HA1E	LSM5	trt_oe	HA1E	LSM5_BRCA_POS_RSUB3_Z0_10	0.537460386753082	0.179664723769662	0.375	0	0
BRD-K93433262:VCAP	alfacalcidol	trt_cp	VCAP	VDR_BRCA_NEG_RSUB3_Z0_23	-0.256590694189072	0.189090931584539	-0.0952380952380952	0	0
BRD-K63068307:VCAP	ZSTK-474	trt_cp	VCAP	PIK3CA_BRCA_NEG_RSUB3_Z0_27	-0.344255268573761	0.19202900866872	-0.166666666666667	0	0
BRD-K02265150:HCC515	amoxapine	trt_cp	HCC515	SLC6A2_BRCA_POS_RSUB2_Z0_103	-0.254559099674225	0.200940994599012	-0.714285714285714	0	0
BRD-A79479878:PC3	testosterone	trt_cp	PC3	CYP3A5_BRCA_POS_RSUB2_Z0_104	0.193559855222702	0.207115589915669	0.0857142857142857	0	0
BRD-K94353609:A549	fluocinolone	trt_cp	A549	NR3C1_BRCA_NEG_RSUB3_Z0_11	-0.341301441192627	0.219356579816229	-0.241379310344828	0	0
BRD-K00317371:A375	RITA	trt_cp	A375	MDM2_BRCA_POS_RSUB3_Z0_31	0.362825512886047	0.22067119467417	0.441176470588235	0	0
BRD-K99369265:A549	sirolimus	trt_cp	A549	FGF2_BRCA_POS_RSUB3_Z0_19	-0.326119869947433	0.230274978577952	-0.225806451612903	0	0
BRD-K76723084:HT29	isotretinoin	trt_cp	HT29	CYP3A5_BRCA_POS_RSUB2_Z0_104	-0.353964120149612	0.232700375877078	-0.571428571428571	0	0
BRD-K66043364:A375	noscapine	trt_cp	A375	SIGMAR1_BRCA_NEG_RSUB3_Z0_10	0.660626173019409	0.24643827820381	0.96875	0	0
BRD-K92723993:MCF7	imatinib	trt_cp	MCF7	ABL1_BRCA_NEG_RSUB3_Z0_13	-0.509305655956268	0.248659650839445	-0.365853658536585	0	0
BRD-K02130563:VCAP	panobinostat	trt_cp	VCAP	HDAC3_BRCA_NEG_RSUB3_Z0_10	-0.454168945550919	0.25047694875084	-0.535714285714286	0	0
BRD-A19736161:MCF7	ondansetron	trt_cp	MCF7	CYP3A5_BRCA_POS_RSUB3_Z0_62	0.278594702482224	0.252395024843554	0.330188679245283	0	0
BRD-K76723084:HT29	isotretinoin	trt_cp	HT29	CYP3A5_BRCA_POS_RSUB3_Z0_62	-0.365713596343994	0.256634323492371	-0.590909090909091	0	0
BRD-A29644307:PC3	nomifensine	trt_cp	PC3	SLC6A2_BRCA_POS_RSUB2_Z0_103	0.250408113002777	0.25834997480107	0.256410256410256	0	0
BRD-K92723993:VCAP	imatinib	trt_cp	VCAP	CYP3A5_BRCA_POS_RSUB2_Z0_104	0.186215728521347	0.258753636261736	0.115384615384615	0	0
BRD-A09722536:VCAP	cyclophosphamide	trt_cp	VCAP	CYP3A5_BRCA_POS_RSUB3_Z0_62	-0.28849670290947	0.261478141208863	-0.604395604395604	0	0
BRD-A69951442:A549	dexamethasone	trt_cp	A549	CYP3A5_BRCA_POS_RSUB2_Z0_104	-0.264930367469788	0.271464916062622	-0.625	0	0
ccsbBroad304_08183:HEPG2	NSDHL	trt_oe	HEPG2	NSDHL_BRCA_POS_RSUB3_Z0_12	0.618149220943451	0.278120143448766	0.703703703703704	0	0
BRD-U88459701:A549	atorvastatin	trt_cp	A549	CYP3A5_BRCA_POS_RSUB2_Z0_104	0.261401742696762	0.278825880372294	0.482758620689655	0	0
BRD-K85606544:A375	neratinib	trt_cp	A375	ERBB2_BRCA_POS_RSUB2_Z0_115	-0.297611832618713	0.295958301626837	-0.457142857142857	0	0
BRD-K36927236:MCF7	glibenclamide	trt_cp	MCF7	CFTR_BRCA_POS_RSUB3_Z0_33	0.441508382558823	0.29746936233097	0.782312925170068	0	0
BRD-K77175907:A375	calcifediol	trt_cp	A375	VDR_BRCA_NEG_RSUB3_Z0_23	-0.396115362644196	0.29746936233097	-0.35	0	0
BRD-A82307304:A375	atorvastatin	trt_cp	A375	CYP3A5_BRCA_POS_RSUB2_Z0_104	0.332967817783356	0.298375951206077	0.686567164179104	0	0
BRD-A35588707:A375	teniposide	trt_cp	A375	CYP3A5_BRCA_POS_RSUB3_Z0_62	0.157110765576363	0.315896462379051	0.0151515151515152	0	0
BRD-K92049597:HCC515	triamterene	trt_cp	HCC515	SCNN1A_BRCA_NEG_RSUB3_Z0_34	-0.232941493391991	0.322438205074645	-0.285714285714286	0	0
BRD-A29644307:A375	nomifensine	trt_cp	A375	SLC6A2_BRCA_POS_RSUB3_Z0_41	0.502798855304718	0.330386607055164	0.905405405405405	0	0
BRD-U88459701:A549	atorvastatin	trt_cp	A549	CYP3A5_BRCA_POS_RSUB3_Z0_62	0.299167215824127	0.337628531868372	0.515151515151515	0	0
BRD-K76723084:A375	isotretinoin	trt_cp	A375	CYP3A5_BRCA_POS_RSUB2_Z0_104	0.205431416630745	0.339137006994359	0.134328358208955	0	0
BRD-K83153774:VCAP	mirtazapine	trt_cp	VCAP	SLC6A2_BRCA_POS_RSUB3_Z0_41	0.17806850373745	0.363361213178691	0.032520325203252	0	0
BRD-K81473089:VCAP	tacrine	trt_cp	VCAP	BCHE_BRCA_POS_RSUB3_Z0_33	-0.313841700553894	0.376921205914586	-0.655913978494624	0	0
BRD-A45889380:MCF7	mepacrine	trt_cp	MCF7	TP53_BRCA_NEG_RSUB3_Z0_20	-0.42516303062439	0.380837288764843	-0.64957264957265	0	0
BRD-K97810537:HT29	beclometasone	trt_cp	HT29	CYP3A5_BRCA_POS_RSUB2_Z0_104	-0.136705577373505	0.382042125933845	-0.0476190476190476	0	0
BRD-M64432851:A549	sunitinib	trt_cp	A549	RET_BRCA_NEG_RSUB3_Z0_17	0.216814920306206	0.382343327058983	0.0571428571428571	0	0
BRD-K87947369:A375	tozasertib	trt_cp	A375	ABL1_BRCA_NEG_RSUB3_Z0_13	-0.170828610658646	0.385756712091277	-0.0117647058823529	0	0
ccsbBroad304_06336:HT29	GSTT1	trt_oe	HT29	GSTT1_BRCA_NEG_RSUB2_Z0_249	0.265937447547913	0.396596473826475	0.4	0	0
BRD-K81473089:A375	tacrine	trt_cp	A375	BCHE_BRCA_POS_RSUB3_Z0_33	0.231056183576584	0.40050981134482	0.130434782608696	0	0
BRD-A82307304:PC3	atorvastatin	trt_cp	PC3	AHR_BRCA_NEG_RSUB3_Z0_12	-0.294565200805664	0.404422611867512	-0.121621621621622	0	0
BRD-A93255169:MCF7	thalidomide	trt_cp	MCF7	CYP3A5_BRCA_POS_RSUB2_Z0_104	0.324283629655838	0.423176611827594	0.693693693693694	0	0
BRD-K98548675:A375	parthenolide	trt_cp	A375	ADIPOR2_BRCA_POS_RSUB3_Z0_29	0.338454753160477	0.427988524775253	0.338235294117647	0	0
BRD-K38197229:A549	bumetanide	trt_cp	A549	CFTR_BRCA_POS_RSUB3_Z0_33	0.272097557783127	0.436307267383934	0.314285714285714	0	0
BRD-A19736161:MCF7	ondansetron	trt_cp	MCF7	CYP3A5_BRCA_POS_RSUB2_Z0_104	-0.259703010320663	0.441217233876262	-0.37888198757764	0	0
BRD-A64479082:HT29	quinidine	trt_cp	HT29	KCNK1_BRCA_NEG_RSUB3_Z0_28	0.284826874732971	0.441818398446048	0.269230769230769	0	0
BRD-A48631911:HA1E	mibefradil	trt_cp	HA1E	ANO1_BRCA_NEG_RSUB3_Z0_15	-0.43606024980545	0.447328507883321	-0.317073170731707	0	0
BRD-K93568044:HT29	hydrocortisone	trt_cp	HT29	NR3C1_BRCA_NEG_RSUB3_Z0_11	0.53121954202652	0.448330236547791	0.368421052631579	0	0
BRD-A18419789:VCAP	etoposide	trt_cp	VCAP	CYP3A5_BRCA_POS_RSUB3_Z0_62	-0.199246779084206	0.45423975246783	-0.142857142857143	0	0
BRD-K85606544:A375	neratinib	trt_cp	A375	ERBB2_BRCA_POS_RSUB3_Z0_93	-0.287871181964874	0.461449787218258	-0.307692307692308	0	0
BRD-K96354014:A375	nifedipine	trt_cp	A375	GLRB_BRCA_NEG_RSUB3_Z0_16	0.346330314874649	0.472161510929607	0.363636363636364	0	0
BRD-A48631911:HT29	mibefradil	trt_cp	HT29	CYP3A5_BRCA_POS_RSUB3_Z0_62	0.366042464971542	0.478166423292633	0.6	0	0
ccsbBroad304_06336:HEPG2	GSTT1	trt_oe	HEPG2	GSTT1_BRCA_NEG_RSUB2_Z0_249	-0.290058463811874	0.481068370756614	-0.555555555555556	0	0
BRD-A19037878:VCAP	trichostatin-a	trt_cp	VCAP	HDAC3_BRCA_NEG_RSUB3_Z0_10	-0.328253149986267	0.490372743476176	-0.169642857142857	0	0
BRD-K02130563:HA1E	panobinostat	trt_cp	HA1E	HDAC3_BRCA_NEG_RSUB3_Z0_10	0.687802374362946	0.496374051874787	0.853658536585366	0	0
BRD-A59303141:VCAP	quinethazone	trt_cp	VCAP	SLC12A2_BRCA_POS_RSUB3_Z0_11	-0.374503344297409	0.500074268044031	-0.446808510638298	0	0
BRD-K86161929:HT29	cortisone	trt_cp	HT29	NR3C1_BRCA_NEG_RSUB3_Z0_11	-0.754158973693848	0.504673908801667	-0.714285714285714	0	0
BRD-A64479082:A375	quinidine	trt_cp	A375	KCNK1_BRCA_NEG_RSUB3_Z0_28	-0.296794801950455	0.512671626567092	-0.255813953488372	0	0
BRD-K36862742:VCAP	hydroflumethiazide	trt_cp	VCAP	CA2_BRCA_POS_RSUB3_Z0_22	-0.209216400980949	0.514770678725793	-0.0204081632653061	0	0
BRD-A69951442:A549	dexamethasone	trt_cp	A549	CYP3A5_BRCA_POS_RSUB3_Z0_62	-0.267100304365158	0.518568594842504	-0.321428571428571	0	0
BRD-K76723084:PC3	isotretinoin	trt_cp	PC3	CYP3A5_BRCA_POS_RSUB2_Z0_104	0.203689575195312	0.520667239389266	0.114285714285714	0	0
BRD-K91601245:HT29	mercaptopurine	trt_cp	HT29	IMPDH2_BRCA_POS_RSUB3_Z0_11	-0.416522473096848	0.52296558829629	-0.241379310344828	0	0
BRD-K12994359:A375	valdecoxib	trt_cp	A375	CA12_BRCA_NEG_RSUB3_Z0_21	-0.431531071662903	0.523764973177437	-0.580246913580247	0	0
BRD-A09722536:MCF7	cyclophosphamide	trt_cp	MCF7	CYP3A5_BRCA_POS_RSUB2_Z0_104	0.346320927143097	0.528261120328721	0.792792792792793	0	0
BRD-A34299591:A375	budesonide	trt_cp	A375	CYP3A5_BRCA_POS_RSUB2_Z0_104	-0.270974069833755	0.529659785558448	-0.366197183098592	0	0
BRD-K51575138:A375	TPCA-1	trt_cp	A375	IKBKB_BRCA_POS_RSUB3_Z0_15	0.332038700580597	0.532257135212417	0.274193548387097	0	0
ccsbBroad304_06336:HT29	GSTT1	trt_oe	HT29	GSTT1_BRCA_NEG_RSUB3_Z0_208	0.276118099689484	0.540447314403877	0.333333333333333	0	0
BRD-K57886322:HA1E	fluocinonide	trt_cp	HA1E	NR3C1_BRCA_NEG_RSUB3_Z0_11	0.385995417833328	0.541545827868598	0.147058823529412	0	0
BRD-K44276885:PC3	acarbose	trt_cp	PC3	MGAM_BRCA_POS_RSUB3_Z0_13	-0.348327785730362	0.54813606682347	-0.410958904109589	0	0
BRD-K01507359:A375	rifampicin	trt_cp	A375	SLCO1B3_BRCA_POS_RSUB2_Z0_202	0.154738798737526	0.549633646865534	0.0149253731343284	0	0
BRD-K01507359:PC3	rifampicin	trt_cp	PC3	SLCO1B3_BRCA_POS_RSUB3_Z0_159	-0.180703103542328	0.552129447445986	-0.0674157303370786	0	0
BRD-K38436528:HCC515	imipramine	trt_cp	HCC515	SLC6A2_BRCA_POS_RSUB3_Z0_41	0.160211965441704	0.5552239513625	0.125	0	0
BRD-K50398167:MCF7	meclofenamic-acid	trt_cp	MCF7	CNR1_BRCA_POS_RSUB3_Z0_24	0.355171740055084	0.562010772880107	0.420382165605096	0	0
BRD-K35687265:VCAP	ON-01910	trt_cp	VCAP	SRC_BRCA_NEG_RSUB3_Z0_12	0.310064524412155	0.587846340162114	0.269230769230769	0	0
BRD-A79479878:A375	testosterone	trt_cp	A375	CYP3A5_BRCA_POS_RSUB2_Z0_104	0.313539624214172	0.612862010370625	0.567164179104478	0	0
BRD-K02637541:A375	celecoxib	trt_cp	A375	CA12_BRCA_NEG_RSUB3_Z0_21	0.255860716104507	0.612961630522563	0.12280701754386	0	0
BRD-K17743125:VCAP	belinostat	trt_cp	VCAP	HDAC3_BRCA_NEG_RSUB3_Z0_10	-0.290868550539017	0.615850461695536	-0.125	0	0
BRD-A09533288:MCF7	verapamil	trt_cp	MCF7	CYP3A5_BRCA_POS_RSUB3_Z0_62	0.297642856836319	0.631086590151864	0.424528301886792	0	0
BRD-K36862742:HCC515	hydroflumethiazide	trt_cp	HCC515	CA12_BRCA_NEG_RSUB3_Z0_21	0.281894832849503	0.633276715292234	0.285714285714286	0	0
BRD-K76723084:A375	isotretinoin	trt_cp	A375	CYP3A5_BRCA_POS_RSUB3_Z0_62	0.235366761684418	0.634471255103205	0.196969696969697	0	0
BRD-A29644307:A375	nomifensine	trt_cp	A375	SLC6A2_BRCA_POS_RSUB2_Z0_103	0.31100207567215	0.63576528088178	0.444444444444444	0	0
ccsbBroad304_06336:HEPG2	GSTT1	trt_oe	HEPG2	GSTT1_BRCA_NEG_RSUB3_Z0_208	-0.277539700269699	0.638651731943079	-0.333333333333333	0	0
BRD-K81418486:A375	vorinostat	trt_cp	A375	HDAC3_BRCA_NEG_RSUB3_Z0_10	0.299640089273453	0.639447940246153	0.193548387096774	0	0
BRD-K10852020:PC3	tolcapone	trt_cp	PC3	TTR_BRCA_POS_RSUB2_Z0_370	0.268116801977158	0.640642208748768	0.538461538461538	0	0
BRD-K10852020:PC3	tolcapone	trt_cp	PC3	TTR_BRCA_POS_RSUB3_Z0_288	0.262356400489807	0.640841248365066	0.524390243902439	0	0
BRD-K19295594:A375	gossypol	trt_cp	A375	BCL2L1_BRCA_POS_RSUB3_Z0_11	0.426968425512314	0.649299068269137	0.40506329113924	0	0
BRD-K01507359:A375	rifampicin	trt_cp	A375	CYP3A5_BRCA_POS_RSUB2_Z0_104	0.235191404819489	0.657953106831143	0.238805970149254	0	0
BRD-K11433652:MCF7	aspirin	trt_cp	MCF7	IKBKB_BRCA_POS_RSUB3_Z0_15	-0.333693325519562	0.661234925553368	-0.347457627118644	0	0
BRD-A55393291:PC3	testosterone	trt_cp	PC3	CYP3A5_BRCA_POS_RSUB3_Z0_62	-0.205899998545647	0.661931015612904	-0.075	0	0
BRD-K97810537:HT29	beclometasone	trt_cp	HT29	CYP3A5_BRCA_POS_RSUB3_Z0_62	0.168165266513824	0.669884994593654	0.04	0	0
BRD-A48631911:HA1E	mibefradil	trt_cp	HA1E	CYP3A5_BRCA_POS_RSUB2_Z0_104	-0.314061522483826	0.679823966559586	-0.526315789473684	0	0
BRD-K21450440:MCF7	benzthiazide	trt_cp	MCF7	CA12_BRCA_NEG_RSUB3_Z0_21	0.321818321943283	0.695618709921965	0.288732394366197	0	0
BRD-A91008255:MCF7	bepridil	trt_cp	MCF7	TNNC1_BRCA_POS_RSUB3_Z0_21	-0.413738697767258	0.710112862147253	-0.62589928057554	0	0
BRD-A93255169:MCF7	thalidomide	trt_cp	MCF7	FGFR2_BRCA_NEG_RSUB3_Z0_13	0.49698194861412	0.713288449980334	0.678571428571429	0	0
BRD-A82307304:HT29	atorvastatin	trt_cp	HT29	CYP3A5_BRCA_POS_RSUB3_Z0_62	0.324008792638779	0.713387679953655	0.48	0	0
BRD-K11433652:MCF7	aspirin	trt_cp	MCF7	TP53_BRCA_NEG_RSUB3_Z0_20	0.266410499811172	0.719241474696413	0.180645161290323	0	0
ccsbBroad304_08183:HT29	NSDHL	trt_oe	HT29	NSDHL_BRCA_POS_RSUB3_Z0_12	0.486471474170685	0.724399475395539	0.615384615384615	0	0
BRD-K36862742:VCAP	hydroflumethiazide	trt_cp	VCAP	CA12_BRCA_NEG_RSUB3_Z0_21	-0.19820773601532	0.728663827438405	-0.0495049504950495	0	0
BRD-A79768653:MCF7	sirolimus	trt_cp	MCF7	FGF2_BRCA_POS_RSUB3_Z0_19	-0.310503602027893	0.730448655329672	-0.245901639344262	0	0
BRD-K01507359:A375	rifampicin	trt_cp	A375	SLCO1B3_BRCA_POS_RSUB3_Z0_159	0.201760277152061	0.751557571980459	0.147058823529412	0	0
BRD-K98763141:A375	niflumic-acid	trt_cp	A375	ANO1_BRCA_NEG_RSUB3_Z0_15	0.348079413175583	0.75502407015935	0.34375	0	0
BRD-K66043364:PC3	noscapine	trt_cp	PC3	SIGMAR1_BRCA_NEG_RSUB3_Z0_10	0.26495036482811	0.76541983912497	0.113924050632911	0	0
ccsbBroad304_07880:MCF7	SIRT5	trt_oe	MCF7	SIRT5_BRCA_POS_RSUB3_Z0_14	-0.469876080751419	0.765617798483602	-0.586666666666667	0	0
BRD-M64432851:A549	sunitinib	trt_cp	A549	FGFR1_BRCA_POS_RSUB3_Z0_31	0.236399233341217	0.767003455143586	0.192307692307692	0	0
BRD-K36616567:PC3	doxepin	trt_cp	PC3	SLC6A2_BRCA_POS_RSUB3_Z0_41	0.29190257191658	0.775611978379305	0.298507462686567	0	0
BRD-A09722536:PC3	cyclophosphamide	trt_cp	PC3	CYP3A5_BRCA_POS_RSUB2_Z0_104	-0.274408668279648	0.776799038804771	-0.573170731707317	0	0
BRD-K92723993:MCF7	imatinib	trt_cp	MCF7	DDR1_BRCA_NEG_RSUB3_Z0_14	0.202621847391129	0.78846750047614	0.0198675496688742	0	0
BRD-A19736161:VCAP	ondansetron	trt_cp	VCAP	CYP3A5_BRCA_POS_RSUB2_Z0_104	0.354595303535461	0.790147891653556	0.903846153846154	0	0
BRD-K86161929:VCAP	cortisone	trt_cp	VCAP	NR3C1_BRCA_NEG_RSUB3_Z0_11	-0.366965889930725	0.796670139000334	-0.185840707964602	0	0
BRD-K53857191:MCF7	risperidone	trt_cp	MCF7	CYP3A5_BRCA_POS_RSUB2_Z0_104	0.229807898402214	0.804868585135172	0.18018018018018	0	0
BRD-K93754473:A549	tamoxifen	trt_cp	A549	CYP3A5_BRCA_POS_RSUB3_Z0_62	0.381812483072281	0.806448510688821	0.939393939393939	0	0
BRD-A63998256:VCAP	helveticoside	trt_cp	VCAP	ATP1A1_BRCA_POS_RSUB3_Z0_10	-0.346513539552689	0.810496316249745	-0.262135922330097	0	0
BRD-A31159102:PC3	fluoxetine	trt_cp	PC3	ANO1_BRCA_NEG_RSUB3_Z0_15	0.355715394020081	0.814148266367056	0.270588235294118	0	0
BRD-A18419789:VCAP	etoposide	trt_cp	VCAP	CYP3A5_BRCA_POS_RSUB2_Z0_104	-0.193062305450439	0.820167031855992	-0.191011235955056	0	0
BRD-A62326914:HA1E	paroxetine	trt_cp	HA1E	SLC6A2_BRCA_POS_RSUB3_Z0_41	0.238780543208122	0.821745299069702	0.075	0	0
BRD-A48631911:HA1E	mibefradil	trt_cp	HA1E	CYP3A5_BRCA_POS_RSUB3_Z0_62	-0.316205233335495	0.824013742020338	-0.294117647058824	0	0
BRD-K53790871:HA1E	triamcinolone	trt_cp	HA1E	NR3C1_BRCA_NEG_RSUB3_Z0_11	-0.285462468862534	0.830619640796674	-0.0294117647058824	0	0
BRD-K92723993:MCF7	imatinib	trt_cp	MCF7	RET_BRCA_NEG_RSUB3_Z0_17	0.358065545558929	0.830718211292993	0.434782608695652	0	0
BRD-K08589866:A375	linsitinib	trt_cp	A375	IGF1R_BRCA_NEG_RSUB3_Z0_15	0.315365731716156	0.833379330739444	0.25	0	0
BRD-K00317371:A375	RITA	trt_cp	A375	TXNRD1_BRCA_POS_RSUB3_Z0_10	-0.465020358562469	0.836926625587636	-0.367647058823529	0	0
BRD-A82307304:HT29	atorvastatin	trt_cp	HT29	CYP3A5_BRCA_POS_RSUB2_Z0_104	0.286112040281296	0.837123668119871	0.461538461538462	0	0
BRD-A47598013:A375	citalopram	trt_cp	A375	SLC6A2_BRCA_POS_RSUB3_Z0_41	0.257209897041321	0.849432438378024	0.22972972972973	0	0
BRD-A48631911:HT29	mibefradil	trt_cp	HT29	ANO1_BRCA_NEG_RSUB3_Z0_15	0.376179546117783	0.882447699386091	0.318181818181818	0	0
BRD-K83153774:VCAP	mirtazapine	trt_cp	VCAP	SLC6A2_BRCA_POS_RSUB2_Z0_103	-0.180482566356659	0.883036183944606	-0.10126582278481	0	0
ccsbBroad304_09358:HA1E	MAPK1IP1L	trt_oe	HA1E	MAPK1IP1L_BRCA_POS_RSUB3_Z0_15	-0.299357771873474	0.898419044413253	-0.114285714285714	0	0
BRD-K60762818:VCAP	desipramine	trt_cp	VCAP	SLC6A2_BRCA_POS_RSUB3_Z0_41	-0.145884215831757	0.904582429294071	-0.0285714285714286	0	0
BRD-K56301217:A375	ABT-737	trt_cp	A375	BCL2L1_BRCA_POS_RSUB3_Z0_11	-0.301552832126617	0.908297146735396	-0.0847457627118644	0	0
BRD-A47494775:VCAP	dipivefrine	trt_cp	VCAP	BCHE_BRCA_POS_RSUB3_Z0_33	0.207413330674171	0.910544415786163	0.1	0	0
BRD-A55393291:PC3	testosterone	trt_cp	PC3	CYP3A5_BRCA_POS_RSUB2_Z0_104	-0.232472285628319	0.924788023068584	-0.292682926829268	0	0
BRD-A35588707:A375	teniposide	trt_cp	A375	CYP3A5_BRCA_POS_RSUB2_Z0_104	0.243109107017517	0.925469905467725	0.26865671641791	0	0
BRD-K50128260:A549	sildenafil	trt_cp	A549	SLCO1B3_BRCA_POS_RSUB2_Z0_202	-0.202551558613777	0.925469905467725	-0.305555555555556	0	0
BRD-A09533288:MCF7	verapamil	trt_cp	MCF7	CYP3A5_BRCA_POS_RSUB2_Z0_104	0.245869621634483	0.932769067345031	0.243243243243243	0	0
BRD-K00317371:A549	RITA	trt_cp	A549	MDM2_BRCA_POS_RSUB3_Z0_31	0.180327415466309	0.937433532072096	0.0344827586206897	0	0
BRD-K02265150:HCC515	amoxapine	trt_cp	HCC515	SLC6A2_BRCA_POS_RSUB3_Z0_41	0.23297606408596	0.939666458496241	0.25	0	0
BRD-K37991163:MCF7	paroxetine	trt_cp	MCF7	SLC6A2_BRCA_POS_RSUB2_Z0_103	-0.200798481702805	0.9448061586299	-0.147540983606557	0	0
BRD-A79479878:MCF7	testosterone	trt_cp	MCF7	CYP3A5_BRCA_POS_RSUB2_Z0_104	-0.237234994769096	0.95274027863043	-0.211180124223602	0	0
BRD-K07881437:VCAP	danusertib	trt_cp	VCAP	RET_BRCA_NEG_RSUB3_Z0_17	-0.30367448925972	0.954285526374867	-0.468085106382979	0	0
BRD-A62326914:PC3	paroxetine	trt_cp	PC3	SLC6A2_BRCA_POS_RSUB2_Z0_103	0.216794386506081	0.965261982021636	0.102564102564103	0	0
BRD-K76723084:HT29	isotretinoin	trt_cp	HT29	RARA_BRCA_POS_RSUB3_Z0_24	0.254386305809021	0.972633558377155	0.0909090909090909	0	0
BRD-A48631911:HT29	mibefradil	trt_cp	HT29	CYP3A5_BRCA_POS_RSUB2_Z0_104	0.278463274240494	0.974350314306725	0.384615384615385	0	0
BRD-A91008255:MCF7	bepridil	trt_cp	MCF7	KCNQ1_BRCA_POS_RSUB3_Z0_11	-0.302000135183334	0.985796349585664	-0.175	0	0
BRD-A58048407:MCF7	nimodipine	trt_cp	MCF7	CFTR_BRCA_POS_RSUB3_Z0_33	-0.367159605026245	0.987758699692163	-0.728	0	0
BRD-K37991163:MCF7	paroxetine	trt_cp	MCF7	SLC6A2_BRCA_POS_RSUB3_Z0_41	0.241325303912163	0.990818821712106	0.134751773049645	0	0
BRD-K50128260:A549	sildenafil	trt_cp	A549	SLCO1B3_BRCA_POS_RSUB3_Z0_159	-0.200657725334167	0.993201603217245	-0.148148148148148	0	0
BRD-K49865102:VCAP	PD-0325901	trt_cp	VCAP	MAP2K1_BRCA_NEG_RSUB3_Z0_11	-0.250348120927811	0.404522933049822	-0.0252100840336134	7.19494819641113	-0.18138524864902
BRD-K80738081:A549	resveratrol	trt_cp	A549	SIRT1_BRCA_NEG_RSUB3_Z0_25	0.309909075498581	0.105911617024757	0.129032258064516	-1.46858024597168	-0.189494225286668
BRD-A09722536:VCAP	cyclophosphamide	trt_cp	VCAP	CYP3A5_BRCA_POS_RSUB2_Z0_104	-0.200997367501259	0.864774806375143	-0.235955056179775	0.817026138305664	-0.192781448364258
BRD-A95869247:VCAP	indapamide	trt_cp	VCAP	KCNQ1_BRCA_POS_RSUB3_Z0_11	0.290157079696655	0.667797314038778	0.123809523809524	-1.93575191497803	-0.239664522806803
BRD-A93255169:PC3	thalidomide	trt_cp	PC3	CYP3A5_BRCA_POS_RSUB3_Z0_62	0.231636270880699	0.836532531168266	0.222222222222222	-1.51768219470978	-0.337262709935506
BRD-A19195498:PC3	trimipramine	trt_cp	PC3	SLC6A2_BRCA_POS_RSUB2_Z0_103	-0.169644385576248	0.50657355733555	-0.0540540540540541	7.00944232940674	-0.378888774562526
BRD-K63630713:VCAP	etacrynic-acid	trt_cp	VCAP	ATP1A1_BRCA_POS_RSUB3_Z0_10	-0.342782974243164	0.723209274750558	-0.233009708737864	1.90688681602478	-0.444323141598007
BRD-A24514565:A375	warfarin	trt_cp	A375	VKORC1_BRCA_POS_RSUB3_Z0_13	-0.278435200452805	0.967755609145631	-0.0952380952380952	5.10765647888184	-0.486443474179222
BRD-K92723993:VCAP	imatinib	trt_cp	VCAP	CYP3A5_BRCA_POS_RSUB3_Z0_62	-0.225881606340408	0.808719365380359	-0.32967032967033	2.18236029148102	-0.719459436751984
BRD-K85606544:MCF7	neratinib	trt_cp	MCF7	ERBB2_BRCA_POS_RSUB3_Z0_93	0.219563961029053	0.00185842896880967	0.142857142857143	-5.47011232376099	-0.781444617680141
BRD-K90027355:HT29	spironolactone	trt_cp	HT29	NR3C1_BRCA_NEG_RSUB3_Z0_11	0.24109360575676	0.314285917931662	0.0526315789473684	-14.9893798828125	-0.788914730674342
BRD-A34299591:PC3	budesonide	trt_cp	PC3	NR3C1_BRCA_NEG_RSUB3_Z0_11	0.321539372205734	0.408535492854224	0.153846153846154	-8.89000606536865	-1.36769324082595
BRD-K72903603:MCF7	zidovudine	trt_cp	MCF7	TERT_BRCA_POS_RSUB3_Z0_13	0.332411229610443	0.872633660646812	0.215568862275449	-9.0332202911377	-1.94728102084405
BRD-K91263825:PC3	nortriptyline	trt_cp	PC3	SIGMAR1_BRCA_NEG_RSUB3_Z0_10	-0.273078411817551	0.196080565596734	-0.164383561643836	13.3242201805115	-2.19028276939915
BRD-K09499853:A549	KU-0060648	trt_cp	A549	PIK3CB_BRCA_NEG_RSUB3_Z0_10	0.373791545629501	0.367982413960943	0.133333333333333	-19.762565612793	-2.6350087483724
BRD-K44276885:A375	acarbose	trt_cp	A375	MGAM_BRCA_POS_RSUB3_Z0_13	0.36272406578064	0.476465152418723	0.352112676056338	-9.72921180725098	-3.42577880537006
BRD-A29644307:PC3	nomifensine	trt_cp	PC3	SLC6A2_BRCA_POS_RSUB3_Z0_41	0.33609414100647	0.649697017314168	0.507462686567164	-7.76856851577759	-3.94225864979758
BRD-K57080016:MCF7	selumetinib	trt_cp	MCF7	MAP2K1_BRCA_POS_RSUB3_Z0_10	-0.471811085939407	0.0179328425894287	-0.524390243902439	7.51997947692871	-3.94340387204798
BRD-K23875128:A549	RHO-kinase-inhibitor-III[rockout]	trt_cp	A549	ROCK1_BRCA_NEG_RSUB3_Z0_25	0.312824338674545	0.0470322856478832	0.242424242424242	-16.6564807891846	-4.03793473677202
BRD-K97764662:A549	PD-173074	trt_cp	A549	FGFR2_BRCA_NEG_RSUB3_Z0_13	0.273337930440903	0.744424590936552	0.142857142857143	-28.9289836883545	-4.13271195547921
